Course	Room	Teacher	Time	Students
32	23	43	1	2 6 27 30 42 68 118 130 163 333 380 402 424 461 477 542 554 561 597 610 619 645 649 652 676 690 708 733 745 817 820 842 851 860 877 886 896 903 916 918 944 962 980 993 1002 1030 1031 1068 1101 1117 1140 1154 1162 1169 1176 1177 
100	23	20	2	26 27 74 93 101 106 119 167 181 199 201 214 230 252 269 273 288 297 314 339 341 346 428 443 448 463 465 469 476 485 495 506 513 531 534 554 557 598 655 659 673 722 778 796 805 818 865 908 915 934 1005 1082 1096 1106 1111 1155 1194 1198 
83	23	37	3	12 19 34 50 51 55 60 162 170 191 204 238 264 271 276 300 311 359 505 513 553 561 611 661 672 681 734 744 773 774 785 790 796 827 829 850 883 892 906 923 931 941 963 992 998 1000 1030 1060 1075 1101 1106 1107 1115 1122 1131 1136 1149 1151 
14	23	49	4	9 34 44 68 150 194 207 210 222 243 287 291 294 322 354 360 373 405 409 448 475 482 581 616 653 658 691 693 699 724 754 808 809 857 865 874 903 918 932 963 967 979 989 1000 1005 1037 1042 1080 1101 1102 1151 1200 
84	23	21	5	44 71 112 126 203 227 263 294 314 320 356 366 372 406 410 436 451 452 456 547 586 606 614 619 645 659 668 671 690 749 763 770 791 803 813 824 855 878 915 981 984 1015 1025 1090 1098 1100 1152 1161 1188 
95	23	7	6	3 72 90 118 126 138 144 173 214 217 226 270 272 347 354 363 418 490 492 497 534 555 576 603 632 641 644 682 699 702 713 753 828 847 848 860 868 876 889 917 919 924 929 944 945 967 982 1001 1067 1109 1117 1121 1149 1173 
77	23	25	7	1 88 134 136 162 167 192 227 230 241 257 258 331 349 404 431 434 451 460 496 510 522 535 540 550 552 558 563 632 688 718 722 767 781 786 821 822 842 853 885 928 932 935 1026 1027 1035 1076 1093 1102 1122 1164 
42	23	22	8	9 29 73 101 103 129 194 227 235 240 248 280 298 315 318 325 340 361 363 373 380 387 402 435 479 491 497 553 592 637 659 693 695 724 758 772 782 832 861 868 871 927 934 978 995 1003 1032 1041 1043 1087 1139 1174 
36	23	32	9	4 36 47 48 51 78 91 123 125 137 176 195 220 225 296 369 437 476 503 525 531 560 574 606 631 639 658 666 681 716 720 721 731 768 776 792 835 846 927 928 969 974 1013 1018 1053 1061 1069 1083 1147 1164 1177 1193 
27	23	9	10	25 30 34 57 58 64 65 145 153 198 211 228 241 249 268 291 301 335 378 446 453 487 489 497 519 546 557 575 587 687 701 721 736 775 875 885 929 965 971 979 995 999 1005 1027 1040 1057 1065 1108 1143 1157 1178 
1	23	48	11	81 132 159 165 182 189 191 195 268 298 320 423 434 457 458 515 575 600 620 623 672 681 696 709 731 740 748 774 847 850 852 853 861 864 872 907 955 972 985 997 999 1040 1058 1062 1075 1079 1088 1142 1155 1167 1185 
46	23	1	12	20 35 42 68 108 113 134 155 160 162 207 235 239 293 306 335 348 375 396 409 414 430 433 443 471 473 491 498 569 580 640 660 690 698 705 745 747 762 803 804 878 920 972 1007 1018 1044 1083 1143 1147 1168 1188 1192 
20	23	14	13	44 69 79 86 89 104 105 116 129 138 157 218 253 292 301 308 317 393 408 490 513 537 570 674 716 728 749 757 758 771 775 846 859 880 897 909 917 921 922 931 938 961 964 983 1033 1047 1052 1059 1063 1120 1124 1151 
89	23	10	14	5 10 38 39 50 80 84 89 94 115 121 123 126 136 166 172 179 223 255 258 284 288 332 350 362 432 433 487 518 589 620 625 648 664 679 680 697 755 805 852 877 887 933 974 975 996 1037 1039 1074 1156 
50	23	41	15	1 26 59 83 92 95 122 133 144 158 163 213 267 279 282 299 328 331 354 413 414 435 463 504 526 540 551 676 696 725 737 795 801 820 823 836 841 847 862 870 880 897 913 919 967 968 990 1090 1139 1164 1184 1196 1197 1199 
62	23	17	16	5 30 74 78 83 92 192 218 227 321 323 329 374 412 443 449 464 467 482 503 527 559 590 608 646 664 684 708 745 754 809 849 876 912 913 925 948 956 966 968 992 997 999 1003 1010 1011 1015 1020 1071 1104 
35	23	12	17	57 73 85 120 121 161 196 202 208 237 243 285 288 298 356 384 391 457 493 520 536 546 584 636 734 738 767 769 786 812 813 830 837 849 862 901 914 920 926 946 948 1021 1033 1035 1092 1130 1155 
33	23	23	18	5 7 8 13 51 63 102 155 178 238 274 307 315 325 347 407 420 428 437 475 479 493 522 654 691 715 742 827 830 859 864 882 905 907 936 940 973 981 1002 1019 1026 1034 1058 1124 1125 1173 1184 1186 
29	23	19	19	1 39 70 75 88 107 115 122 162 176 184 190 193 212 222 231 259 267 325 371 375 383 482 528 580 584 601 625 661 676 701 713 714 729 775 784 830 831 860 867 883 907 914 919 977 989 998 1000 1059 1093 1183 
97	23	39	20	10 56 75 166 173 178 198 203 268 304 378 379 436 439 451 471 492 494 530 545 577 604 654 661 693 714 725 726 733 736 752 755 760 788 798 870 899 901 904 966 1038 1046 1099 1116 1181 1188 1189 
75	28	26	20	16 36 77 112 133 139 184 195 202 216 237 243 252 298 306 311 356 381 386 389 415 438 474 476 479 508 575 583 607 623 670 705 711 737 742 763 775 803 834 836 838 843 856 871 895 908 938 952 1073 1107 1162 1180 
74	28	50	19	18 90 96 101 119 153 163 179 206 225 282 297 324 328 338 344 384 385 402 458 465 496 505 525 529 534 563 577 578 589 617 624 626 628 658 670 677 683 764 799 891 939 980 988 990 1022 1049 1067 1097 1114 1175 
38	28	44	18	4 20 109 113 170 175 182 183 185 210 216 268 275 338 343 369 410 411 454 483 540 553 564 624 630 644 662 663 689 693 737 756 796 904 921 922 960 962 987 1024 1033 1055 1066 1080 1085 1088 1122 1132 1135 1156 1170 
10	28	24	17	29 30 39 43 50 152 157 164 220 269 293 330 345 351 413 460 469 480 502 506 529 540 588 598 602 605 609 622 658 686 735 746 783 815 844 921 931 937 971 987 1022 1036 1045 1050 1089 1102 1113 1138 1139 1150 
94	28	40	16	15 62 114 142 160 161 179 210 239 253 294 319 360 383 422 475 500 522 534 568 570 582 596 647 720 730 735 774 800 873 881 884 910 920 926 929 930 945 976 1026 1045 1048 1067 1078 1085 1152 
65	28	11	15	13 87 99 101 107 120 142 185 186 209 211 219 220 344 352 383 408 434 442 478 484 498 511 557 589 609 615 640 644 646 667 686 715 724 736 781 785 835 883 917 965 975 1042 1074 1130 1132 1177 
56	28	6	14	41 43 184 201 211 219 241 248 270 300 322 326 344 354 370 374 382 438 486 505 517 523 528 582 632 639 640 671 678 695 703 754 759 762 768 795 802 809 817 886 1018 1083 1111 1115 1122 1157 1173 1175 1185 1197 
99	28	16	13	3 8 131 158 244 250 264 318 321 348 357 380 424 438 462 488 493 528 550 556 558 559 565 567 587 630 684 688 697 710 717 741 743 787 789 826 835 836 861 900 913 915 950 1027 1104 1109 1114 1150 
93	28	2	12	17 49 141 178 181 204 221 242 256 258 265 289 290 294 303 394 494 546 590 638 656 669 678 720 737 770 789 807 812 833 844 865 954 992 996 1001 1040 1054 1084 1092 1120 1134 1144 1179 
66	28	15	11	51 58 63 93 94 116 177 223 228 231 240 246 250 286 301 308 334 346 348 366 397 421 448 461 466 483 573 650 654 662 666 724 730 781 807 832 848 857 887 930 973 983 1020 1097 1174 1176 1192 
63	28	5	10	32 33 67 68 137 163 217 233 244 252 260 266 328 411 441 472 505 510 524 554 576 633 634 744 761 762 823 827 864 871 895 932 956 991 1028 1031 1036 1044 1066 1070 1107 1118 1123 1140 1154 1161 
37	28	17	9	65 103 111 117 124 164 209 280 286 324 326 355 370 432 460 471 472 516 530 532 580 593 637 650 677 680 683 691 702 719 726 751 795 829 831 855 884 889 990 994 1030 1090 1129 1176 1194 
91	28	4	8	7 10 26 31 76 90 118 132 164 181 198 234 282 284 350 362 394 397 400 450 464 466 470 477 664 688 690 700 712 733 736 751 925 929 933 981 983 991 1012 1030 1063 1069 1086 1095 1110 1149 
88	28	16	7	2 43 77 81 86 100 110 193 204 225 226 246 260 279 313 367 368 391 432 440 456 461 481 492 553 557 642 649 669 708 727 733 755 764 770 804 837 882 888 898 900 910 961 964 1060 1073 1160 1173 1175 
73	28	37	6	37 45 85 142 147 148 159 187 233 242 247 249 254 330 367 431 465 515 516 519 543 550 560 573 589 604 651 676 748 785 815 839 850 879 908 937 946 968 999 1059 1075 1098 1110 1130 1140 1163 1167 1182 
71	28	3	5	34 78 82 110 125 144 226 234 240 346 347 367 368 384 421 435 459 490 543 569 578 593 646 647 681 682 707 718 776 822 831 851 873 884 936 943 995 1051 1069 1082 1124 1163 1196 1198 
25	28	26	4	11 61 115 140 166 177 245 255 290 303 309 328 342 346 348 349 376 379 388 390 392 441 450 486 512 514 515 521 548 564 595 603 611 661 718 859 883 890 894 941 946 977 990 1035 1079 1086 1112 1172 1184 
15	28	14	3	8 25 41 54 58 127 165 208 231 244 253 270 272 349 369 535 586 613 668 691 696 727 749 770 798 799 800 838 839 862 873 905 984 1003 1004 1018 1046 1111 1112 1160 1169 1177 
7	28	45	2	9 64 66 73 138 139 165 229 236 260 282 302 304 308 333 337 404 425 564 637 651 656 702 707 727 747 765 779 783 790 801 811 888 901 912 947 964 1008 1011 1024 1028 1071 1084 1138 1179 
92	28	36	1	48 149 174 194 200 202 277 321 332 391 401 410 412 417 425 469 507 517 524 547 567 600 665 668 670 687 697 701 709 711 732 771 797 876 882 911 942 953 961 985 1017 1071 1091 1115 1147 
60	27	27	1	12 35 47 63 78 84 129 151 168 190 192 235 272 273 310 319 324 358 385 414 427 433 444 445 504 520 529 537 544 568 628 629 651 685 723 833 867 884 952 966 1009 1032 1063 1089 1134 1159 1170 1185 
39	27	49	2	37 76 81 100 122 254 292 293 307 312 388 429 442 445 453 454 462 517 518 629 694 740 751 797 804 813 816 836 839 840 866 881 907 922 928 953 960 973 996 1016 1031 1034 1042 1074 1076 1085 1099 1158 1200 
30	27	35	3	86 99 108 122 124 159 316 317 322 333 352 376 382 504 537 541 549 570 591 593 595 653 656 670 680 695 712 720 729 746 777 797 812 853 900 938 955 1009 1010 1047 1081 1097 1103 1123 1141 1167 1178 
16	27	42	4	62 64 119 139 141 151 156 157 214 234 238 244 271 311 356 406 414 495 509 518 539 560 586 592 608 615 621 684 686 771 780 798 803 805 839 840 847 870 871 933 1006 1016 1032 1077 1094 1136 1182 1196 
90	27	35	5	60 106 117 130 137 140 159 186 188 214 255 312 365 420 499 502 507 652 674 675 688 719 729 732 754 757 761 769 781 818 827 850 854 911 926 952 957 959 1047 1056 1064 1091 1108 1154 1178 
86	27	18	6	6 86 87 107 109 120 129 149 154 155 203 210 279 281 305 306 331 332 337 407 425 453 500 501 525 526 527 547 618 712 719 793 810 826 843 901 930 969 1053 1064 1085 1100 1179 1180 1194 
76	27	3	7	28 32 38 40 42 45 66 70 112 169 198 223 274 286 291 376 423 444 454 532 538 547 564 627 633 709 743 749 766 852 855 859 868 880 897 911 912 924 940 1000 1021 1098 1132 1144 1195 1197 
55	27	1	8	20 52 53 69 91 95 117 135 142 228 236 257 260 277 278 302 378 385 415 416 444 508 517 571 579 585 599 613 632 653 662 684 746 808 826 897 942 970 971 977 993 998 1001 1011 1099 
22	27	33	9	24 27 29 62 84 92 100 143 147 151 182 196 211 233 236 262 276 283 310 358 360 413 431 448 456 487 521 542 569 582 625 706 722 734 793 863 877 939 958 966 970 1001 1067 1113 
18	27	7	10	7 14 24 46 56 110 165 195 247 269 285 330 353 355 397 484 502 512 545 548 549 631 641 712 750 792 806 832 892 927 957 975 978 987 1008 1023 1078 1087 1102 1112 1114 1128 1148 1187 1192 
11	27	13	11	12 16 49 64 80 107 171 190 213 255 292 299 306 310 338 340 341 365 372 386 393 438 443 478 489 496 509 511 529 583 614 651 692 722 743 773 951 954 974 982 1037 1115 1127 1133 
8	27	12	12	4 26 45 55 102 156 161 171 205 215 231 261 300 327 351 357 388 423 459 466 483 598 600 605 610 655 694 710 714 732 742 790 791 817 842 885 940 1010 1057 1079 1081 1107 1146 1153 1159 1183 1186 
98	27	44	13	35 95 143 169 172 204 271 327 329 353 396 415 486 495 512 521 530 566 581 603 626 727 800 812 814 824 825 867 891 902 924 996 1113 1117 1133 1146 1186 1190 1199 
82	27	15	14	29 52 65 85 87 99 175 178 251 261 266 285 375 389 413 423 426 430 447 480 485 492 520 533 614 657 663 665 675 707 726 742 766 872 881 898 908 921 1021 1046 1078 1118 1171 
79	27	2	15	18 25 41 61 104 105 111 135 136 145 205 217 234 261 293 326 329 339 426 433 440 441 445 452 462 500 583 596 621 641 650 741 778 780 786 943 972 984 988 995 1013 1015 1145 1150 1191 
59	27	11	16	24 89 154 174 185 191 215 257 263 357 400 401 407 409 417 424 472 477 508 538 630 649 667 682 687 738 741 753 759 763 765 796 886 951 1002 1009 1024 1027 1051 1119 1134 1144 1147 1170 1197 
58	27	40	17	18 21 31 49 90 105 125 128 187 219 332 400 401 403 430 441 483 498 548 585 586 590 633 644 662 677 757 764 788 840 909 911 917 941 1012 1023 1048 1064 1077 1104 1135 1136 1187 1190 
44	27	42	18	3 213 237 239 253 363 376 379 381 392 393 422 516 537 544 584 595 612 655 694 772 777 798 844 854 878 891 903 906 916 918 965 977 1006 1089 1090 1093 1101 1109 1116 1136 1159 1188 1189 
96	27	28	19	55 62 66 111 147 152 170 207 224 248 256 323 377 382 398 419 454 462 607 642 665 767 777 806 815 826 848 849 903 913 935 936 985 1043 1052 1060 1088 1105 1130 1165 1172 1179 1199 
69	27	20	20	15 110 205 223 249 264 296 300 310 342 374 387 422 434 446 455 477 491 500 522 559 591 630 673 697 739 804 845 848 858 887 890 896 947 987 989 1071 1075 1123 1128 1137 1157 1191 
54	24	34	20	40 52 70 79 94 124 149 167 171 187 218 263 278 280 357 371 404 435 528 531 571 573 617 622 642 643 647 686 699 700 706 745 773 811 817 842 872 905 906 910 954 970 984 1083 1095 1106 
47	24	33	19	13 41 97 102 156 181 217 265 276 305 312 315 334 341 361 431 436 440 444 451 459 461 467 491 532 542 545 551 552 583 595 621 643 685 692 738 743 791 808 880 882 1008 1029 1135 1176 1181 
31	24	8	18	10 21 23 67 224 256 317 366 436 452 455 470 471 473 495 503 510 511 533 558 601 607 623 650 687 719 735 765 768 779 785 811 856 863 895 896 933 1016 1038 1059 1084 1099 1104 1126 1169 1196 
28	24	10	17	16 75 77 133 135 177 189 239 252 259 283 287 303 323 335 339 362 378 382 412 478 523 524 569 574 594 606 618 623 634 685 715 723 753 824 828 865 881 923 953 1006 1121 1126 1142 1169 
6	24	46	16	9 14 23 124 150 232 246 258 270 281 337 384 394 398 446 463 473 533 544 555 597 628 669 672 683 692 700 739 747 795 835 856 861 866 939 962 988 1013 1029 1065 1096 1112 1132 1184 1189 
26	24	18	15	11 17 67 74 79 160 167 176 182 249 262 327 366 392 406 459 460 470 501 548 612 675 680 689 704 723 752 760 771 789 793 815 845 853 900 923 937 974 997 1020 1024 1025 1105 1168 1180 
9	24	29	14	25 60 63 74 77 79 81 97 106 119 143 199 302 313 316 359 381 393 405 407 416 469 544 575 592 619 622 636 673 689 713 721 748 758 783 818 828 955 1022 1041 1054 1072 1105 1154 1165 
87	24	31	13	15 21 53 72 76 96 128 141 146 150 171 247 291 309 420 432 449 453 455 504 509 538 610 640 675 695 698 700 725 780 802 838 879 925 926 972 979 1058 1094 1100 1116 1187 1191 1195 
61	24	34	12	6 11 21 22 53 138 166 200 251 274 276 277 301 321 344 363 365 390 419 465 539 601 609 677 679 728 782 788 825 832 851 863 904 914 983 1055 1065 1094 1106 1128 1152 1171 
51	24	38	11	47 61 67 83 121 123 134 150 172 216 232 289 318 430 480 493 501 519 533 549 559 585 591 599 611 639 667 751 779 863 904 953 958 994 1004 1011 1014 1045 1050 1080 1109 1118 1153 1193 
48	24	36	10	45 82 222 229 245 281 286 295 343 371 405 507 509 514 516 580 590 600 626 636 657 704 738 758 789 800 824 877 893 894 912 940 959 976 1021 1060 1072 1088 1133 1137 1145 1163 1168 
43	24	19	9	33 38 56 72 112 114 133 153 242 266 317 336 383 399 426 457 468 545 561 562 613 617 634 642 671 685 708 710 779 788 828 874 888 892 956 962 985 1014 1032 1035 1133 1148 1151 
24	24	23	8	22 147 149 175 191 209 232 303 305 319 368 369 424 612 620 703 721 744 810 814 819 823 851 857 858 888 920 923 944 1019 1054 1056 1057 1061 1082 1113 1116 1123 1127 1181 1185 1190 
72	24	8	7	3 5 54 84 85 87 94 139 315 316 329 333 342 364 415 420 464 484 518 525 565 641 645 772 791 807 813 819 834 846 854 857 874 950 994 1095 1103 1110 1118 1182 1194 
70	24	50	6	32 71 91 130 131 161 208 245 336 341 379 406 419 447 466 474 567 577 587 591 602 605 647 717 731 735 740 761 792 794 819 856 862 980 1031 1056 1072 1131 1165 1171 1183 
68	24	6	5	52 152 173 241 242 272 273 274 280 287 327 358 399 429 455 485 497 526 554 572 608 624 638 702 731 759 784 811 814 843 844 932 949 965 997 1009 1017 1044 1048 1053 1081 1141 1159 
67	24	28	4	54 66 69 114 184 188 259 352 365 385 470 476 484 488 541 558 601 628 635 660 698 740 744 766 786 794 855 893 935 947 949 958 978 1003 1049 1073 1076 1078 1161 1174 1180 1193 
64	24	4	3	33 82 158 169 177 201 225 313 350 374 411 416 418 486 494 531 637 645 654 657 683 703 714 716 726 760 820 860 864 944 950 964 971 979 1013 1015 1025 1041 1068 1069 1172 
23	24	41	2	50 53 92 99 131 132 140 157 197 224 247 250 275 325 392 398 482 582 599 607 627 649 717 728 759 768 833 834 872 958 969 975 986 1019 1025 1036 1045 1051 1119 1120 1160 1189 1190 
5	24	9	1	39 69 71 73 75 199 212 229 292 339 351 370 428 449 458 463 468 475 501 546 556 576 579 594 618 627 631 718 763 869 922 1048 1050 1062 1070 1077 1096 1137 1142 1143 1164 1193 
81	8	29	1	17 95 97 173 180 206 285 320 345 359 389 397 408 426 480 514 527 572 614 636 664 730 761 810 818 837 841 849 874 878 914 919 954 963 976 994 1065 1092 1131 1163 1171 1182 
80	8	30	2	19 36 40 44 46 70 88 185 206 207 219 232 353 367 386 421 439 498 499 510 535 562 565 574 597 699 752 756 772 802 858 870 879 885 980 988 1038 1055 1077 1091 1098 1103 
45	8	46	3	2 22 28 96 104 134 144 148 172 192 193 334 364 380 427 437 474 481 488 551 585 588 616 679 682 692 794 821 823 837 858 869 902 909 991 1033 1039 1054 1080 1095 1146 1166 
19	8	24	4	33 46 56 59 72 93 103 125 126 127 146 180 183 221 284 295 304 391 473 536 567 588 596 638 646 659 704 756 776 841 852 889 916 928 960 982 1007 1134 1135 1139 1175 1178 
12	8	47	5	11 40 58 111 121 135 145 164 187 189 194 209 228 235 248 304 353 361 364 464 584 625 629 705 728 829 886 946 948 951 960 976 1016 1023 1036 1039 1050 1129 1142 1157 1162 1186 
2	8	39	6	2 49 60 98 141 168 189 215 238 240 262 265 275 297 389 427 468 524 615 635 653 671 709 755 802 825 845 869 898 899 942 963 973 986 992 1004 1007 1014 1020 1038 1141 1187 
57	8	30	7	18 20 89 103 108 155 176 196 200 319 338 340 381 388 396 417 560 562 568 612 622 624 704 725 777 969 991 1028 1040 1056 1062 1066 1079 1092 1138 1152 1155 1166 1170 1172 1200 
85	8	25	8	8 24 59 61 96 120 151 154 168 170 201 202 295 296 299 330 358 375 403 422 437 442 502 541 555 609 660 663 701 773 854 918 967 1034 1111 1114 1119 1143 1145 1195 
78	8	22	9	1 16 32 98 108 131 174 230 267 279 308 322 340 362 373 396 417 474 499 506 523 539 570 615 620 753 760 799 834 875 1007 1029 1037 1043 1047 1063 1096 1108 1149 1162 
53	8	21	10	43 113 140 146 152 186 196 205 212 230 251 265 267 271 288 345 372 398 421 440 447 450 452 581 588 648 689 816 822 910 930 968 1002 1010 1026 1041 1093 1158 1167 1183 
49	8	38	12	19 23 36 91 127 130 145 175 208 224 283 345 350 395 400 401 408 579 599 604 606 616 657 756 765 767 769 887 902 938 941 986 1008 1049 1087 1125 1129 1165 1198 1200 
41	8	5	11	37 48 118 148 197 287 342 355 411 418 429 439 523 536 543 550 551 566 608 656 673 679 732 741 746 747 750 787 809 868 875 905 924 934 952 956 1052 1084 1131 1146 
40	8	32	13	83 183 215 222 290 297 314 336 343 368 377 487 489 535 563 597 621 665 696 711 764 799 801 821 843 889 906 927 945 948 978 993 1004 1012 1017 1055 1068 1086 1137 1160 
17	8	45	14	13 15 27 31 88 93 98 117 160 188 243 250 263 296 352 377 387 402 467 472 536 566 574 635 769 784 829 830 951 1019 1082 1097 1110 1117 1145 1158 1191 1198 1199 
4	8	13	15	12 28 54 109 128 132 174 188 237 257 284 320 351 405 429 494 530 552 571 581 602 663 674 866 873 876 892 899 916 931 947 982 1014 1034 1044 1046 1057 1124 1140 
34	8	48	16	57 71 105 106 180 213 256 269 273 278 318 335 373 410 425 479 526 577 578 604 655 706 782 797 820 840 869 915 943 970 989 998 1006 1070 1125 1127 1148 1156 
52	8	43	17	35 55 82 116 169 179 221 261 307 309 311 372 390 513 515 519 527 543 603 666 672 707 790 846 893 902 949 957 959 961 981 1073 1081 1087 1091 1144 1161 
13	8	27	18	14 17 38 80 97 137 153 180 245 251 305 349 395 409 419 439 456 467 532 556 587 643 652 674 750 778 783 793 821 935 937 939 1017 1052 1070 1128 1192 
21	8	47	19	23 31 46 136 186 203 216 218 220 236 254 278 309 387 390 403 427 488 521 539 598 639 648 652 678 739 757 780 787 792 875 893 894 943 945 1005 
3	8	31	20	4 6 42 65 100 123 226 326 331 355 361 490 496 499 538 549 572 666 668 710 762 805 806 808 986 993 1012 1086 1121 1126 1129 
