Students	3000
1	110 248 6 241
2	329 57 99 237
3	287 35 95 27
4	342 232 106 186
5	72 264 169 189
6	257 348 25 26
7	348 46 2 246
8	288 303 193 126
9	32 57 105 313
10	68 207 251 323
11	259 261 273 222
12	250 311 33 298
13	56 285 147 49
14	111 79 252 75
15	153 283 157 165
16	25 26 31 343
17	61 337 248 144
18	134 294 144 211
19	203 88 284 116
20	95 249 118 60
21	43 286 164 213
22	38 168 28 9
23	200 109 15 69
24	161 50 267 119
25	333 222 243 56
26	231 140 107 8
27	272 84 311 136
28	332 67 282 59
29	46 79 20 30
30	181 115 172 56
31	135 284 76 262
32	126 138 256 226
33	3 17 304 127
34	32 8 280 39
35	87 46 170 76
36	53 200 234 150
37	138 271 85 213
38	133 284 113 114
39	43 311 279 239
40	228 12 244 218
41	121 322 61 23
42	185 339 327 134
43	317 89 299 76
44	325 162 164 302
45	53 68 24 60
46	16 261 186 288
47	123 10 303 324
48	25 137 52 300
49	240 181 336 239
50	122 281 86 73
51	197 333 193 73
52	17 67 190 58
53	280 229 98 265
54	246 164 36 51
55	119 70 118 92
56	181 322 160 335
57	97 90 232 273
58	166 258 72 240
59	219 345 261 79
60	204 126 307 171
61	218 104 342 116
62	49 37 335 8
63	168 25 156 327
64	272 218 126 85
65	30 336 157 255
66	46 116 193 342
67	179 60 142 297
68	152 289 329 181
69	125 124 305 147
70	89 46 213 268
71	283 192 306 211
72	288 178 146 161
73	340 25 241 175
74	336 151 109 171
75	276 249 330 286
76	218 285 336 149
77	135 343 51 321
78	155 43 334 332
79	34 82 299 228
80	166 297 153 329
81	335 178 64 27
82	199 39 128 263
83	191 155 285 340
84	130 176 224 75
85	144 90 156 304
86	7 20 338 279
87	116 336 130 88
88	342 100 221 152
89	235 345 21 105
90	120 161 12 98
91	197 218 50 320
92	309 80 70 153
93	28 113 289 14
94	223 8 33 320
95	147 224 62 257
96	347 8 46 157
97	249 195 130 181
98	43 67 283 265
99	194 244 84 23
100	79 321 120 267
101	324 287 88 251
102	262 13 250 302
103	76 25 82 37
104	149 86 205 326
105	158 125 129 139
106	229 53 264 212
107	329 274 142 350
108	23 146 39 286
109	261 335 101 245
110	70 321 320 145
111	8 90 125 310
112	84 182 318 292
113	317 18 298 270
114	337 123 323 330
115	263 336 139 24
116	212 347 250 136
117	294 283 132 234
118	246 256 163 81
119	15 276 204 251
120	200 168 311 344
121	100 255 142 318
122	162 110 100 13
123	37 35 294 8
124	73 25 299 48
125	5 171 337 138
126	161 152 209 218
127	303 317 66 193
128	205 100 235 92
129	335 58 188 89
130	207 4 193 287
131	25 2 113 341
132	157 142 215 319
133	112 115 65 90
134	211 251 237 126
135	64 51 145 164
136	25 293 348 220
137	144 270 90 81
138	211 256 150 236
139	344 19 162 59
140	166 324 274 286
141	257 166 14 139
142	160 41 229 192
143	186 291 105 164
144	268 274 143 141
145	35 93 94 71
146	242 53 306 253
147	299 86 158 188
148	37 321 295 112
149	201 38 208 304
150	113 181 209 251
151	319 246 112 300
152	7 217 252 117
153	323 254 105 180
154	279 241 124 152
155	157 312 302 81
156	180 277 4 24
157	18 138 314 49
158	327 99 14 174
159	91 27 46 288
160	116 243 293 307
161	151 87 306 316
162	250 294 332 342
163	40 134 252 177
164	343 88 91 320
165	313 300 217 336
166	293 6 216 184
167	305 130 101 105
168	225 164 101 63
169	188 344 317 116
170	107 173 313 86
171	216 187 213 33
172	108 325 223 123
173	196 260 149 183
174	175 29 285 297
175	268 177 287 331
176	248 167 338 239
177	88 229 90 327
178	157 288 68 299
179	181 34 294 217
180	324 171 210 110
181	177 80 94 85
182	106 35 21 333
183	41 161 47 73
184	269 132 5 256
185	192 38 295 98
186	65 6 105 270
187	267 348 88 333
188	89 81 195 87
189	275 332 150 48
190	337 200 55 224
191	59 275 302 213
192	278 254 62 252
193	309 156 270 164
194	196 139 152 38
195	21 247 67 10
196	329 239 57 324
197	202 114 304 92
198	316 31 203 116
199	58 171 31 254
200	276 346 47 83
201	281 54 350 191
202	219 132 341 190
203	167 115 48 224
204	129 232 283 199
205	20 70 121 265
206	19 239 37 87
207	275 314 177 135
208	229 112 101 261
209	78 298 20 275
210	64 281 159 310
211	291 286 176 227
212	2 124 298 250
213	55 82 291 330
214	215 271 101 1
215	197 322 343 51
216	187 191 101 284
217	10 97 94 239
218	52 230 107 105
219	318 30 68 22
220	301 17 123 248
221	232 247 11 83
222	83 107 20 294
223	80 3 173 127
224	301 195 238 349
225	131 27 106 286
226	23 107 240 280
227	75 237 116 343
228	255 258 293 161
229	283 85 316 56
230	27 214 213 246
231	313 214 168 113
232	314 329 270 46
233	48 267 67 111
234	288 296 217 219
235	344 119 224 70
236	1 79 32 168
237	317 303 157 276
238	76 346 121 149
239	321 42 319 38
240	118 335 61 88
241	15 135 285 155
242	24 295 203 290
243	15 295 98 276
244	77 316 182 152
245	263 250 14 70
246	322 138 212 323
247	72 133 2 21
248	317 69 17 344
249	90 42 192 225
250	177 160 243 299
251	152 263 9 127
252	325 200 91 80
253	211 338 183 38
254	101 73 154 248
255	161 300 255 194
256	19 241 142 31
257	320 237 7 323
258	310 186 239 331
259	69 238 253 289
260	63 180 56 197
261	327 166 122 269
262	140 95 18 296
263	178 58 155 293
264	311 10 138 38
265	235 91 69 147
266	312 268 163 275
267	294 75 256 147
268	176 270 13 291
269	161 56 87 107
270	196 114 48 142
271	191 171 263 150
272	287 332 55 233
273	293 195 101 219
274	130 174 300 312
275	350 340 287 216
276	310 52 251 323
277	337 250 1 349
278	55 92 221 333
279	283 154 24 209
280	169 306 234 311
281	189 87 3 294
282	159 199 337 97
283	261 124 2 102
284	77 154 111 136
285	151 25 281 1
286	219 261 116 169
287	61 278 128 136
288	126 331 40 156
289	157 203 230 107
290	348 284 239 301
291	36 149 300 260
292	269 132 115 172
293	347 63 236 10
294	15 229 327 151
295	64 231 227 257
296	236 10 94 257
297	189 157 180 182
298	322 212 307 46
299	72 166 265 2
300	27 284 332 224
301	50 186 174 148
302	285 316 330 43
303	346 194 223 41
304	349 59 148 237
305	150 186 37 88
306	319 18 237 195
307	231 256 221 350
308	321 209 64 243
309	277 7 37 83
310	349 31 346 94
311	260 308 50 108
312	37 17 105 234
313	258 331 270 264
314	337 83 147 91
315	198 258 212 344
316	240 249 82 228
317	206 187 339 246
318	251 173 16 328
319	308 111 234 235
320	204 315 178 48
321	5 335 25 229
322	106 34 266 155
323	252 309 53 286
324	283 35 223 76
325	24 308 332 234
326	74 328 10 197
327	304 222 244 185
328	222 136 5 80
329	253 68 184 15
330	61 129 139 23
331	175 211 59 200
332	222 258 238 261
333	28 161 225 162
334	339 338 103 148
335	294 137 73 33
336	236 344 44 49
337	261 330 69 88
338	339 59 338 98
339	317 256 188 320
340	105 144 207 23
341	11 87 288 253
342	177 317 188 50
343	239 23 308 168
344	41 100 175 197
345	345 324 205 292
346	91 217 196 39
347	105 183 214 296
348	37 257 346 239
349	150 193 149 221
350	86 88 198 240
351	16 31 179 92
352	332 294 236 269
353	166 55 127 73
354	51 47 144 316
355	109 284 68 80
356	302 303 40 301
357	75 16 229 43
358	348 314 177 131
359	269 101 53 38
360	168 319 214 283
361	194 108 159 188
362	177 260 69 1
363	143 304 153 226
364	259 169 110 29
365	140 217 228 182
366	195 261 301 135
367	80 85 151 346
368	315 260 266 128
369	215 43 326 87
370	207 20 179 80
371	235 136 82 24
372	30 153 109 139
373	184 166 86 35
374	335 43 344 95
375	50 13 212 151
376	3 268 53 246
377	302 124 83 276
378	170 108 338 192
379	73 48 186 299
380	263 233 261 43
381	136 11 103 46
382	266 197 160 339
383	90 332 278 130
384	261 111 348 98
385	230 264 94 15
386	325 347 156 193
387	271 274 49 188
388	138 285 159 160
389	207 39 34 290
390	5 159 294 287
391	172 182 331 11
392	317 105 108 161
393	310 202 266 333
394	4 214 349 52
395	18 128 161 335
396	99 23 158 134
397	319 141 262 111
398	349 115 37 347
399	196 347 142 218
400	114 23 304 319
401	49 180 292 77
402	8 305 18 40
403	328 242 67 21
404	256 117 301 106
405	89 170 51 171
406	16 281 198 218
407	193 252 272 30
408	291 122 308 185
409	314 339 306 124
410	302 77 162 195
411	296 350 285 12
412	6 261 133 48
413	220 285 260 119
414	95 271 150 133
415	335 296 290 348
416	235 15 253 182
417	200 202 117 280
418	204 314 202 284
419	75 44 336 149
420	194 317 267 225
421	181 278 167 30
422	66 253 159 75
423	330 280 281 83
424	234 188 253 82
425	280 194 319 240
426	208 338 100 46
427	14 335 250 41
428	41 66 107 218
429	176 35 228 294
430	183 118 165 283
431	8 249 79 119
432	233 328 61 250
433	290 144 296 128
434	344 100 233 267
435	167 197 110 139
436	34 53 79 263
437	235 28 18 265
438	148 43 322 267
439	35 38 254 41
440	179 114 116 311
441	259 301 58 282
442	121 281 250 270
443	273 65 231 60
444	60 80 142 255
445	273 265 173 90
446	10 334 314 246
447	146 290 132 30
448	194 177 12 108
449	248 184 230 105
450	75 327 289 23
451	138 235 232 66
452	249 68 6 83
453	259 315 115 306
454	311 336 76 290
455	325 215 51 37
456	31 279 168 327
457	282 1 4 28
458	202 221 190 30
459	250 313 255 142
460	308 190 65 298
461	237 123 80 248
462	126 334 130 199
463	329 305 268 97
464	113 206 165 285
465	260 233 91 1
466	201 16 235 2
467	207 16 107 214
468	239 229 266 123
469	138 247 209 335
470	230 3 174 330
471	191 122 2 17
472	119 183 265 217
473	92 295 233 298
474	5 318 209 342
475	67 252 290 321
476	115 166 271 253
477	289 62 214 294
478	259 62 39 322
479	50 330 162 167
480	26 292 248 204
481	74 93 4 34
482	263 205 104 185
483	32 10 275 158
484	143 255 290 112
485	211 163 191 25
486	134 73 38 225
487	309 104 32 38
488	205 256 109 175
489	256 30 334 86
490	273 67 90 49
491	306 178 309 133
492	66 93 265 258
493	73 306 263 19
494	221 131 190 153
495	345 207 166 275
496	47 343 51 196
497	239 169 177 290
498	15 347 205 152
499	3 304 243 56
500	63 159 310 177
501	15 338 237 302
502	205 20 79 51
503	33 302 147 153
504	208 326 350 302
505	65 163 104 12
506	301 61 88 139
507	167 5 276 348
508	346 340 204 189
509	23 218 2 203
510	28 285 80 125
511	293 322 88 114
512	127 65 2 332
513	1 126 78 314
514	175 129 182 264
515	313 329 298 5
516	326 163 215 314
517	186 31 152 180
518	265 165 301 21
519	35 100 132 104
520	102 129 286 310
521	83 175 329 213
522	131 148 11 2
523	194 314 102 243
524	322 202 283 105
525	109 152 179 249
526	13 246 176 66
527	172 261 198 167
528	57 196 133 132
529	310 205 259 148
530	138 320 30 224
531	333 139 291 340
532	41 309 177 337
533	96 331 52 128
534	166 219 332 212
535	184 323 167 331
536	50 288 247 144
537	248 93 91 227
538	342 333 206 340
539	86 184 210 211
540	298 59 111 64
541	92 347 70 192
542	8 311 204 338
543	5 158 327 315
544	280 138 80 329
545	326 133 204 88
546	59 240 62 63
547	68 27 69 85
548	112 216 240 84
549	58 281 238 275
550	237 273 26 2
551	57 73 147 268
552	36 342 71 100
553	145 68 190 156
554	40 3 345 15
555	2 89 257 191
556	128 260 22 193
557	248 29 348 9
558	289 319 261 303
559	31 109 280 337
560	234 225 166 307
561	222 101 170 225
562	218 265 166 303
563	238 346 47 42
564	323 340 65 137
565	105 111 92 66
566	136 153 32 251
567	311 134 232 275
568	12 113 299 136
569	147 338 25 184
570	268 85 216 301
571	168 82 333 65
572	1 59 175 126
573	19 265 342 227
574	276 265 125 83
575	252 350 156 195
576	274 116 33 40
577	100 266 107 176
578	291 97 322 39
579	62 165 40 80
580	70 69 95 82
581	308 318 275 173
582	144 32 67 273
583	177 206 246 320
584	207 234 158 114
585	32 16 109 4
586	223 54 263 108
587	232 116 56 36
588	23 22 337 297
589	44 64 328 183
590	115 22 144 237
591	14 290 324 273
592	194 138 343 161
593	334 288 348 350
594	34 117 284 316
595	165 38 51 299
596	20 270 113 55
597	174 99 154 272
598	322 138 90 22
599	40 32 4 346
600	264 292 163 233
601	117 119 291 35
602	5 279 98 88
603	221 262 272 274
604	303 170 99 302
605	163 247 200 333
606	349 190 191 326
607	74 208 64 150
608	163 113 136 54
609	291 31 88 321
610	234 201 42 67
611	114 288 95 111
612	215 177 40 45
613	195 304 94 68
614	325 264 82 307
615	93 292 317 81
616	174 6 149 312
617	55 234 35 341
618	215 334 10 207
619	304 346 149 38
620	163 181 137 309
621	49 113 283 287
622	101 13 321 21
623	343 252 91 158
624	53 85 340 47
625	282 5 255 278
626	96 302 201 120
627	179 160 151 327
628	21 236 77 69
629	39 213 138 140
630	167 206 243 304
631	80 335 102 272
632	106 317 77 95
633	324 163 55 225
634	262 324 337 112
635	192 328 312 300
636	131 334 97 81
637	19 71 17 263
638	305 37 341 277
639	4 66 292 267
640	50 153 93 189
641	299 84 294 135
642	142 244 344 279
643	84 191 195 49
644	157 118 37 108
645	109 33 130 116
646	339 196 245 350
647	167 119 107 30
648	2 284 262 4
649	308 256 191 11
650	250 199 213 282
651	26 90 113 159
652	164 91 76 179
653	183 162 226 176
654	14 306 154 45
655	180 256 342 106
656	302 32 180 169
657	235 65 281 133
658	291 300 269 345
659	285 98 310 296
660	268 316 164 141
661	33 339 276 79
662	269 13 330 272
663	144 142 73 228
664	323 15 294 221
665	313 87 169 117
666	157 199 264 121
667	308 343 242 337
668	59 260 82 109
669	34 62 228 216
670	149 48 198 70
671	27 80 59 121
672	304 102 234 20
673	194 303 328 127
674	133 115 285 180
675	192 263 191 26
676	83 331 294 248
677	48 198 53 320
678	7 289 41 256
679	116 63 180 323
680	79 188 140 214
681	167 15 96 205
682	149 348 134 331
683	160 136 173 116
684	309 4 288 55
685	222 233 276 118
686	338 246 223 132
687	270 146 197 23
688	121 105 242 209
689	187 344 73 11
690	337 158 176 197
691	328 158 136 289
692	304 96 149 121
693	20 283 338 117
694	262 49 190 54
695	238 202 141 172
696	192 260 287 96
697	10 27 1 181
698	283 25 302 134
699	229 41 248 313
700	236 231 323 250
701	213 348 243 261
702	37 1 254 216
703	182 277 180 115
704	297 12 25 70
705	269 90 11 236
706	294 122 16 201
707	24 1 23 72
708	92 90 69 48
709	294 125 42 113
710	68 291 12 28
711	174 339 119 184
712	301 263 226 323
713	126 78 150 223
714	296 77 135 171
715	73 181 346 41
716	71 73 45 80
717	245 266 143 65
718	96 323 239 29
719	237 277 116 272
720	102 296 218 166
721	57 5 113 302
722	56 197 12 52
723	98 52 125 276
724	238 130 86 239
725	194 349 169 222
726	139 299 16 180
727	60 342 344 161
728	206 232 162 81
729	158 162 66 205
730	183 122 227 241
731	192 100 45 207
732	314 107 61 83
733	213 38 33 312
734	204 321 139 347
735	314 83 107 40
736	70 177 178 199
737	93 3 275 154
738	252 348 92 85
739	31 348 260 88
740	115 14 130 242
741	104 105 268 76
742	10 347 318 139
743	184 111 322 342
744	84 26 309 157
745	124 69 248 160
746	133 282 283 285
747	107 268 102 135
748	56 222 181 40
749	349 15 320 276
750	120 103 252 80
751	345 338 241 69
752	165 182 147 137
753	181 163 253 349
754	14 276 195 121
755	171 88 80 326
756	240 322 193 131
757	173 224 263 172
758	292 23 318 146
759	52 18 319 251
760	266 314 159 327
761	253 115 318 19
762	15 226 37 60
763	276 116 19 67
764	84 319 96 146
765	253 312 90 182
766	27 30 60 167
767	307 213 98 263
768	136 214 98 4
769	232 193 340 149
770	7 85 82 229
771	64 183 160 187
772	18 315 56 267
773	223 31 149 85
774	349 261 111 173
775	187 90 92 279
776	61 219 195 151
777	222 121 257 317
778	317 13 202 116
779	214 89 120 224
780	74 155 214 244
781	244 43 103 251
782	121 269 128 277
783	315 16 62 57
784	297 241 163 138
785	3 144 38 320
786	289 141 265 13
787	69 48 42 191
788	271 106 346 280
789	346 7 334 139
790	210 102 120 222
791	114 88 104 225
792	162 45 76 57
793	211 19 252 151
794	235 214 170 123
795	332 147 83 21
796	46 62 73 326
797	156 277 144 127
798	293 308 108 186
799	217 226 166 285
800	133 222 131 163
801	133 317 237 218
802	296 345 43 297
803	165 71 175 22
804	69 248 149 47
805	237 47 306 190
806	345 326 24 201
807	64 265 271 164
808	97 216 183 20
809	13 262 342 275
810	244 245 60 236
811	47 302 236 69
812	312 101 104 345
813	319 178 320 153
814	14 350 34 127
815	302 203 224 231
816	254 205 265 342
817	332 324 24 347
818	39 260 93 328
819	89 64 290 145
820	151 47 117 318
821	200 7 18 297
822	242 185 65 349
823	26 97 24 316
824	286 18 179 5
825	337 304 13 5
826	277 188 30 144
827	267 259 337 320
828	319 56 291 317
829	330 239 65 43
830	299 174 93 215
831	221 120 112 339
832	115 169 76 299
833	202 68 340 2
834	251 259 256 23
835	295 340 144 339
836	240 44 309 81
837	158 183 167 134
838	238 161 343 7
839	292 260 217 298
840	336 276 104 143
841	338 325 328 150
842	90 236 29 312
843	27 180 177 37
844	26 203 338 181
845	30 3 28 97
846	150 186 143 304
847	102 185 143 112
848	34 292 344 299
849	135 107 38 256
850	170 331 202 201
851	198 78 4 67
852	289 32 220 295
853	135 127 102 252
854	284 257 196 321
855	338 145 208 219
856	226 175 165 297
857	146 240 196 101
858	55 243 341 157
859	195 150 289 307
860	325 83 259 81
861	207 67 206 51
862	90 107 7 293
863	346 295 118 294
864	141 266 320 155
865	210 14 64 30
866	303 11 196 104
867	11 326 162 331
868	67 322 291 31
869	132 343 19 267
870	198 130 118 35
871	239 2 293 105
872	174 112 256 66
873	319 200 84 234
874	305 44 111 160
875	281 66 275 348
876	46 148 9 39
877	245 327 254 108
878	189 199 214 153
879	119 125 229 248
880	121 92 268 325
881	218 314 36 297
882	37 156 191 254
883	212 91 188 20
884	234 280 12 34
885	96 230 100 289
886	3 12 268 119
887	79 29 17 118
888	247 90 269 274
889	349 124 204 224
890	303 230 158 218
891	225 328 36 191
892	43 2 260 76
893	52 65 245 319
894	272 126 22 56
895	119 17 290 310
896	85 272 247 294
897	131 314 157 338
898	231 249 62 147
899	57 220 29 40
900	350 117 311 81
901	315 304 79 347
902	10 314 107 87
903	140 250 79 156
904	58 301 144 1
905	38 26 199 223
906	261 193 282 186
907	173 155 32 307
908	32 227 104 51
909	330 212 109 38
910	215 7 83 236
911	196 190 105 40
912	141 326 24 200
913	304 222 67 15
914	296 2 280 240
915	26 8 132 182
916	127 306 79 277
917	158 317 312 238
918	281 270 237 3
919	136 122 118 251
920	296 38 5 344
921	280 70 312 47
922	184 120 151 343
923	198 229 273 54
924	103 98 307 136
925	113 209 278 328
926	151 289 234 196
927	52 280 59 41
928	209 134 90 20
929	198 225 48 266
930	339 220 164 152
931	208 267 282 61
932	42 138 334 55
933	253 115 172 182
934	171 113 120 279
935	338 93 340 147
936	203 29 223 65
937	23 191 186 61
938	276 283 94 279
939	332 189 319 280
940	300 149 293 124
941	315 261 193 82
942	185 161 336 197
943	41 318 115 320
944	57 214 318 314
945	199 242 273 156
946	264 55 190 197
947	167 181 63 59
948	334 284 338 54
949	18 51 103 127
950	183 53 263 336
951	163 345 138 55
952	300 62 323 230
953	189 237 107 140
954	12 305 348 289
955	344 291 169 203
956	77 283 73 275
957	203 84 303 63
958	14 24 298 139
959	54 301 52 27
960	24 241 281 244
961	255 91 85 99
962	129 296 319 260
963	304 338 119 246
964	193 286 211 225
965	269 108 195 251
966	301 180 345 170
967	108 4 139 12
968	62 14 120 293
969	329 231 145 241
970	25 114 28 172
971	4 244 66 22
972	152 102 184 171
973	271 96 207 174
974	174 168 252 232
975	70 212 148 134
976	205 92 36 244
977	140 4 27 237
978	73 7 167 71
979	128 303 182 121
980	252 254 297 100
981	174 52 331 231
982	48 152 270 23
983	142 21 256 47
984	125 345 244 274
985	79 156 327 203
986	145 58 116 137
987	271 134 136 2
988	71 80 165 49
989	274 137 231 15
990	168 101 310 53
991	149 45 159 42
992	298 255 265 314
993	171 117 304 332
994	311 18 333 128
995	186 8 282 233
996	169 58 300 296
997	165 227 53 234
998	2 34 277 184
999	94 4 303 91
1000	324 189 38 160
1001	137 55 340 75
1002	15 174 320 49
1003	43 165 185 286
1004	208 143 337 198
1005	280 139 14 58
1006	43 332 247 189
1007	182 346 186 117
1008	52 162 218 49
1009	5 189 99 176
1010	107 273 10 114
1011	258 56 240 114
1012	329 226 50 32
1013	227 342 214 268
1014	200 320 41 136
1015	23 208 291 194
1016	114 95 148 61
1017	321 286 42 208
1018	193 227 175 338
1019	127 291 83 2
1020	95 164 89 46
1021	180 336 107 302
1022	48 322 107 70
1023	51 236 119 154
1024	129 300 159 312
1025	120 113 84 330
1026	60 276 209 83
1027	17 297 133 124
1028	134 7 324 20
1029	89 238 335 84
1030	277 231 29 312
1031	72 320 348 244
1032	72 335 285 330
1033	333 112 83 278
1034	4 193 260 166
1035	12 81 98 141
1036	118 203 47 243
1037	272 122 290 152
1038	127 96 316 338
1039	5 222 163 55
1040	215 189 219 350
1041	198 301 76 155
1042	84 133 38 170
1043	305 90 299 173
1044	135 108 281 151
1045	209 194 89 314
1046	280 333 159 145
1047	299 48 6 178
1048	231 274 185 313
1049	325 199 75 53
1050	184 217 88 192
1051	11 188 152 266
1052	323 291 206 260
1053	241 202 50 46
1054	285 123 68 46
1055	270 45 27 76
1056	229 200 11 160
1057	39 145 197 78
1058	319 148 259 296
1059	154 197 84 269
1060	98 123 15 131
1061	269 300 80 76
1062	23 33 93 292
1063	92 320 349 153
1064	74 246 164 189
1065	267 330 312 181
1066	306 139 174 252
1067	310 36 285 29
1068	271 254 299 45
1069	137 15 108 166
1070	239 46 31 322
1071	118 284 110 173
1072	279 258 68 62
1073	57 218 175 350
1074	224 87 304 37
1075	17 56 143 114
1076	296 103 292 267
1077	162 311 133 341
1078	307 5 279 185
1079	207 115 150 149
1080	286 141 8 123
1081	136 120 54 81
1082	230 229 6 271
1083	141 100 350 285
1084	104 317 59 177
1085	49 104 40 167
1086	36 233 286 34
1087	228 33 160 71
1088	138 284 252 82
1089	138 241 262 129
1090	57 153 284 234
1091	169 305 128 4
1092	200 270 174 22
1093	169 6 106 115
1094	320 20 120 208
1095	230 348 283 275
1096	208 262 312 207
1097	137 147 7 54
1098	335 135 326 49
1099	187 244 178 68
1100	176 306 52 83
1101	178 180 247 123
1102	331 230 45 229
1103	311 259 235 176
1104	320 72 61 77
1105	60 307 308 44
1106	213 15 183 305
1107	34 309 275 199
1108	261 155 323 312
1109	83 161 335 59
1110	345 240 125 12
1111	152 246 155 240
1112	122 298 347 296
1113	147 71 312 72
1114	111 318 346 93
1115	48 241 225 347
1116	327 329 343 303
1117	73 186 229 322
1118	254 115 123 132
1119	248 134 218 40
1120	48 262 145 332
1121	158 240 68 23
1122	46 311 292 183
1123	44 236 136 15
1124	229 329 90 345
1125	334 20 245 318
1126	340 15 102 117
1127	336 193 172 162
1128	104 341 130 297
1129	228 348 104 115
1130	239 223 17 168
1131	199 307 260 6
1132	324 34 141 331
1133	74 261 188 56
1134	19 65 53 275
1135	302 4 311 70
1136	29 332 340 181
1137	42 183 110 225
1138	305 212 81 115
1139	109 111 162 312
1140	103 333 46 70
1141	211 284 13 26
1142	161 214 233 65
1143	63 324 112 249
1144	120 302 172 233
1145	341 155 65 7
1146	24 110 4 247
1147	60 92 199 250
1148	11 31 162 121
1149	71 16 224 222
1150	70 261 280 183
1151	338 64 317 34
1152	68 240 175 196
1153	292 311 118 10
1154	103 122 76 231
1155	119 278 214 330
1156	339 48 124 186
1157	193 89 64 235
1158	152 222 90 151
1159	287 91 223 61
1160	215 103 222 45
1161	344 281 103 99
1162	314 203 115 5
1163	38 53 202 79
1164	143 47 85 120
1165	207 223 326 252
1166	285 158 172 317
1167	244 63 172 52
1168	119 62 175 273
1169	246 335 268 69
1170	38 243 206 139
1171	126 287 38 240
1172	252 334 250 10
1173	199 112 319 29
1174	2 266 60 330
1175	303 178 238 88
1176	86 174 96 216
1177	239 153 224 149
1178	2 284 194 225
1179	216 73 290 240
1180	186 116 216 99
1181	319 160 135 240
1182	233 57 277 13
1183	296 202 227 96
1184	93 247 65 131
1185	237 244 325 106
1186	200 72 349 45
1187	274 108 284 128
1188	156 17 303 342
1189	18 66 297 144
1190	260 49 231 164
1191	281 100 349 120
1192	188 121 340 226
1193	190 48 228 315
1194	290 90 44 116
1195	308 317 336 138
1196	247 278 240 285
1197	255 230 310 14
1198	195 327 110 287
1199	288 218 205 3
1200	42 260 94 113
1201	46 43 311 211
1202	226 58 15 323
1203	171 240 331 99
1204	128 174 157 123
1205	54 111 255 257
1206	286 111 299 301
1207	170 92 221 165
1208	106 250 180 28
1209	80 237 108 22
1210	309 337 206 101
1211	34 161 310 128
1212	318 177 342 304
1213	185 88 252 291
1214	6 4 50 58
1215	154 324 106 137
1216	305 150 299 296
1217	299 73 93 1
1218	253 179 52 127
1219	12 30 204 18
1220	5 335 36 190
1221	349 288 233 30
1222	281 164 109 122
1223	307 71 269 14
1224	181 243 333 195
1225	182 128 65 100
1226	317 278 95 350
1227	176 303 218 150
1228	348 101 318 22
1229	314 311 304 197
1230	114 262 19 223
1231	58 69 161 185
1232	335 157 140 50
1233	233 12 57 346
1234	248 71 77 244
1235	181 6 313 233
1236	47 294 106 182
1237	193 49 221 282
1238	326 281 34 208
1239	5 36 264 94
1240	63 332 294 125
1241	36 197 72 69
1242	216 307 72 2
1243	336 128 302 129
1244	94 50 159 189
1245	288 147 164 242
1246	72 60 298 103
1247	328 267 202 95
1248	336 16 234 232
1249	60 344 221 337
1250	64 350 96 209
1251	333 78 167 286
1252	182 19 84 315
1253	229 319 124 222
1254	339 260 296 6
1255	332 269 44 191
1256	307 283 88 299
1257	176 154 18 217
1258	238 314 62 45
1259	112 149 190 263
1260	42 211 262 330
1261	19 253 154 299
1262	106 202 172 313
1263	234 343 230 188
1264	108 223 271 341
1265	60 149 247 271
1266	83 278 227 82
1267	151 19 134 182
1268	136 42 157 273
1269	207 13 133 25
1270	263 144 8 328
1271	102 226 75 10
1272	19 205 247 179
1273	262 183 21 32
1274	165 1 147 350
1275	233 190 222 182
1276	165 265 138 68
1277	54 5 66 33
1278	130 161 10 41
1279	30 200 37 179
1280	341 312 133 146
1281	270 212 96 259
1282	343 133 215 119
1283	165 256 245 192
1284	8 282 164 83
1285	350 152 93 171
1286	268 200 170 19
1287	201 218 240 2
1288	15 4 115 223
1289	73 218 340 284
1290	304 86 328 288
1291	34 282 208 264
1292	337 227 251 54
1293	314 275 257 132
1294	248 244 61 269
1295	99 342 206 340
1296	178 68 230 177
1297	330 38 266 215
1298	29 194 333 163
1299	335 15 62 220
1300	226 28 147 119
1301	189 109 277 120
1302	284 320 147 218
1303	119 186 205 163
1304	244 251 142 148
1305	256 315 15 118
1306	14 313 322 330
1307	34 324 103 157
1308	339 202 119 309
1309	241 192 204 1
1310	261 173 241 334
1311	155 294 216 13
1312	9 100 117 128
1313	47 205 202 213
1314	24 258 264 99
1315	36 102 267 307
1316	332 249 58 189
1317	283 30 232 180
1318	171 168 312 241
1319	73 155 320 238
1320	27 246 252 343
1321	66 110 148 49
1322	169 178 296 70
1323	243 153 130 291
1324	319 137 12 297
1325	57 184 222 96
1326	124 30 306 266
1327	125 157 311 158
1328	337 166 317 265
1329	195 2 333 140
1330	281 2 47 90
1331	156 264 106 236
1332	28 269 10 102
1333	133 279 235 73
1334	44 233 125 346
1335	62 37 182 95
1336	134 176 120 191
1337	343 29 252 3
1338	266 346 179 183
1339	82 246 102 156
1340	295 293 69 189
1341	120 151 9 333
1342	212 51 70 268
1343	35 194 12 322
1344	132 54 77 322
1345	183 107 242 273
1346	70 140 267 85
1347	141 109 99 206
1348	241 4 333 215
1349	155 189 229 22
1350	33 165 95 291
1351	196 296 181 136
1352	101 316 207 110
1353	211 233 244 39
1354	330 81 334 182
1355	166 54 147 43
1356	136 40 178 327
1357	150 112 9 18
1358	61 235 248 320
1359	16 116 295 157
1360	212 131 95 150
1361	92 33 267 256
1362	94 149 255 193
1363	242 265 10 75
1364	229 34 138 225
1365	91 197 28 160
1366	349 94 142 85
1367	90 240 299 305
1368	174 124 21 24
1369	242 137 286 256
1370	55 144 23 7
1371	315 310 48 238
1372	224 336 175 226
1373	140 235 283 165
1374	221 178 58 145
1375	305 27 109 296
1376	164 84 276 7
1377	153 339 95 143
1378	297 236 346 31
1379	105 77 338 323
1380	316 134 82 313
1381	34 248 336 216
1382	328 330 20 47
1383	131 347 28 13
1384	248 163 232 130
1385	308 294 342 142
1386	58 331 239 172
1387	183 329 331 274
1388	89 191 72 144
1389	50 340 134 345
1390	165 282 160 109
1391	182 67 32 304
1392	204 131 155 298
1393	140 132 23 231
1394	45 153 204 90
1395	202 242 255 291
1396	9 237 349 194
1397	208 199 168 174
1398	325 273 104 7
1399	308 113 183 154
1400	277 14 324 230
1401	270 123 62 222
1402	123 244 313 192
1403	44 157 243 197
1404	80 282 176 4
1405	339 188 112 263
1406	222 184 344 288
1407	344 231 269 223
1408	239 202 89 84
1409	102 258 190 126
1410	256 179 19 33
1411	213 277 170 13
1412	56 72 114 14
1413	148 331 299 314
1414	190 214 177 338
1415	193 179 229 324
1416	81 128 187 217
1417	42 271 165 280
1418	321 147 220 262
1419	258 13 7 156
1420	307 24 257 156
1421	134 199 267 23
1422	105 74 96 322
1423	123 264 134 105
1424	63 268 95 228
1425	124 286 243 337
1426	21 101 58 234
1427	283 285 185 28
1428	40 300 249 278
1429	61 182 157 300
1430	288 67 35 282
1431	44 5 268 321
1432	288 269 43 283
1433	108 156 42 133
1434	128 165 166 206
1435	134 169 28 92
1436	33 314 189 127
1437	34 161 227 129
1438	321 347 314 57
1439	42 1 69 325
1440	343 42 164 329
1441	185 120 147 113
1442	315 24 295 254
1443	281 349 41 235
1444	262 227 167 120
1445	173 275 55 99
1446	154 297 198 209
1447	257 172 301 329
1448	211 139 105 177
1449	11 159 16 132
1450	77 260 257 275
1451	21 216 175 210
1452	300 71 341 261
1453	102 125 77 174
1454	169 299 199 273
1455	255 146 256 245
1456	192 183 321 292
1457	92 311 28 269
1458	89 226 127 206
1459	182 18 193 231
1460	207 164 348 208
1461	170 85 3 287
1462	35 124 245 112
1463	200 231 278 146
1464	11 97 335 290
1465	93 46 175 8
1466	347 310 270 281
1467	341 166 208 135
1468	339 208 299 286
1469	50 341 267 67
1470	26 54 192 350
1471	124 329 12 103
1472	73 75 241 211
1473	345 105 144 155
1474	45 281 104 197
1475	329 182 95 252
1476	20 59 137 118
1477	291 13 345 70
1478	28 48 299 288
1479	131 239 246 156
1480	208 281 36 163
1481	281 349 246 138
1482	258 195 212 8
1483	245 289 262 23
1484	349 123 82 204
1485	226 208 296 221
1486	129 97 224 343
1487	60 71 196 255
1488	250 43 158 185
1489	173 10 250 157
1490	6 261 1 284
1491	316 240 198 312
1492	82 59 110 79
1493	213 143 196 258
1494	131 33 57 290
1495	341 193 128 259
1496	86 50 165 7
1497	273 176 57 290
1498	12 180 244 189
1499	71 178 40 301
1500	174 304 180 111
1501	221 110 182 350
1502	43 88 329 234
1503	118 58 148 39
1504	348 177 324 180
1505	83 297 111 178
1506	182 73 219 103
1507	260 180 59 318
1508	132 137 256 159
1509	241 271 69 162
1510	68 132 270 182
1511	303 82 256 107
1512	221 328 267 333
1513	211 296 333 30
1514	125 199 133 95
1515	19 277 194 230
1516	159 42 246 33
1517	243 100 66 68
1518	154 56 223 44
1519	172 244 18 239
1520	312 170 87 130
1521	300 182 34 338
1522	50 301 256 100
1523	120 132 86 88
1524	57 248 34 295
1525	148 317 111 104
1526	6 230 164 26
1527	133 181 232 77
1528	246 25 212 308
1529	194 147 36 114
1530	119 168 97 213
1531	229 295 134 31
1532	298 171 107 76
1533	313 140 89 331
1534	94 96 106 172
1535	1 244 93 134
1536	276 300 219 115
1537	332 277 171 124
1538	177 158 242 235
1539	160 304 253 336
1540	190 323 178 130
1541	295 192 83 340
1542	331 335 91 299
1543	295 191 209 237
1544	84 321 275 77
1545	135 35 32 102
1546	37 145 31 39
1547	118 2 43 320
1548	223 162 109 227
1549	15 102 165 81
1550	24 325 137 86
1551	251 68 118 181
1552	264 116 121 152
1553	162 15 261 145
1554	181 27 197 255
1555	144 266 261 342
1556	180 24 117 192
1557	190 334 44 152
1558	202 201 325 166
1559	293 242 148 36
1560	304 222 116 151
1561	3 276 343 268
1562	244 40 324 51
1563	8 109 335 124
1564	133 121 18 126
1565	20 183 225 41
1566	265 80 208 257
1567	67 237 188 199
1568	327 251 59 238
1569	90 123 68 112
1570	103 55 341 26
1571	169 133 317 213
1572	50 54 205 77
1573	255 208 127 261
1574	252 87 124 29
1575	9 210 199 21
1576	259 122 18 7
1577	138 151 77 92
1578	330 302 111 200
1579	105 170 231 350
1580	313 147 258 260
1581	229 272 80 129
1582	260 214 59 348
1583	208 124 37 283
1584	306 289 174 225
1585	127 93 19 172
1586	292 249 238 330
1587	110 173 70 82
1588	152 265 336 23
1589	188 6 146 237
1590	79 68 103 74
1591	132 121 295 113
1592	23 213 134 18
1593	152 98 28 323
1594	326 46 97 324
1595	198 200 53 328
1596	228 41 192 171
1597	266 129 283 350
1598	279 185 60 50
1599	230 65 3 296
1600	171 8 239 15
1601	335 98 246 189
1602	327 45 123 193
1603	215 226 339 330
1604	322 40 258 131
1605	52 57 294 138
1606	7 302 116 290
1607	264 209 257 87
1608	90 193 257 69
1609	49 296 164 2
1610	269 102 122 150
1611	151 214 225 74
1612	212 52 43 301
1613	137 184 52 150
1614	338 46 220 132
1615	309 146 162 274
1616	237 270 45 26
1617	208 221 82 131
1618	48 344 190 274
1619	21 131 237 289
1620	263 38 80 194
1621	312 289 162 27
1622	68 254 17 182
1623	341 148 38 174
1624	141 201 205 143
1625	44 7 135 144
1626	108 66 101 111
1627	303 295 22 263
1628	41 63 42 20
1629	58 137 53 308
1630	162 282 5 33
1631	310 293 42 227
1632	128 136 55 286
1633	265 111 163 215
1634	111 252 267 17
1635	305 313 172 160
1636	280 328 189 36
1637	104 346 29 342
1638	192 5 212 4
1639	308 301 100 126
1640	277 166 333 280
1641	68 46 241 234
1642	107 81 53 206
1643	305 72 306 137
1644	261 54 53 29
1645	276 164 173 282
1646	222 199 229 244
1647	194 138 290 206
1648	248 6 295 56
1649	179 3 28 335
1650	276 139 322 326
1651	320 231 349 334
1652	36 25 76 84
1653	137 278 303 98
1654	55 247 148 272
1655	273 38 110 55
1656	188 101 289 131
1657	124 225 318 113
1658	250 101 123 32
1659	29 97 2 51
1660	278 346 186 72
1661	32 219 285 103
1662	147 260 178 158
1663	193 192 98 29
1664	164 113 225 305
1665	145 113 339 300
1666	348 226 88 69
1667	11 25 242 112
1668	302 267 193 178
1669	124 47 155 257
1670	322 165 331 127
1671	259 21 250 97
1672	29 312 135 53
1673	164 40 59 239
1674	234 20 201 267
1675	18 228 94 162
1676	163 301 204 330
1677	21 63 114 227
1678	157 266 168 324
1679	232 241 80 4
1680	283 96 128 347
1681	117 225 349 44
1682	13 198 154 242
1683	88 26 38 163
1684	338 163 170 86
1685	221 125 195 18
1686	146 281 165 212
1687	333 209 174 230
1688	283 111 277 84
1689	104 7 110 271
1690	116 76 32 165
1691	94 140 334 331
1692	235 52 147 214
1693	296 132 145 309
1694	339 197 346 233
1695	89 148 131 62
1696	241 112 249 239
1697	155 123 349 338
1698	130 1 81 32
1699	23 185 37 24
1700	247 198 42 194
1701	301 127 40 211
1702	112 309 191 304
1703	83 60 93 324
1704	224 70 260 174
1705	163 133 327 43
1706	255 269 98 51
1707	98 261 29 315
1708	175 253 77 202
1709	313 158 61 328
1710	303 270 5 217
1711	149 22 71 60
1712	147 162 40 278
1713	141 257 304 181
1714	314 181 19 230
1715	230 179 89 269
1716	144 98 33 69
1717	50 108 298 93
1718	192 128 60 32
1719	118 313 55 323
1720	255 167 155 279
1721	99 205 319 337
1722	228 122 39 12
1723	349 329 53 344
1724	148 263 273 118
1725	339 74 51 334
1726	29 152 277 154
1727	128 22 176 164
1728	196 296 245 290
1729	44 334 214 99
1730	220 319 67 137
1731	299 172 206 108
1732	270 89 255 191
1733	199 90 178 239
1734	146 81 29 154
1735	320 22 145 130
1736	115 284 47 302
1737	231 104 137 235
1738	199 127 250 169
1739	251 292 35 24
1740	292 60 171 218
1741	146 242 333 167
1742	332 197 61 129
1743	183 172 336 180
1744	317 124 125 338
1745	106 223 289 199
1746	91 172 100 183
1747	334 349 221 224
1748	188 200 311 304
1749	330 261 257 206
1750	348 64 21 346
1751	10 22 44 72
1752	129 339 8 288
1753	103 98 183 260
1754	37 170 56 153
1755	52 38 9 309
1756	96 16 112 138
1757	6 222 304 317
1758	165 344 320 9
1759	141 279 87 266
1760	16 299 228 226
1761	45 76 259 344
1762	171 193 279 66
1763	289 122 1 10
1764	13 97 82 225
1765	39 28 308 118
1766	137 349 158 247
1767	190 53 333 223
1768	30 330 260 170
1769	35 327 313 99
1770	25 164 224 232
1771	316 144 232 72
1772	22 221 173 223
1773	293 162 247 332
1774	201 210 256 42
1775	11 311 296 168
1776	293 65 334 172
1777	159 2 167 18
1778	177 188 203 220
1779	141 316 3 35
1780	199 102 11 138
1781	121 15 85 122
1782	4 120 326 313
1783	137 60 171 180
1784	188 228 314 221
1785	227 27 300 285
1786	32 149 233 86
1787	306 78 348 81
1788	4 146 125 17
1789	33 280 9 291
1790	143 336 202 239
1791	118 124 48 290
1792	273 312 337 118
1793	89 240 167 321
1794	294 163 234 30
1795	153 203 126 142
1796	302 136 54 162
1797	127 202 273 146
1798	11 251 341 174
1799	12 264 20 106
1800	37 276 207 324
1801	148 331 261 164
1802	285 243 64 148
1803	210 112 190 67
1804	314 46 239 265
1805	184 302 286 7
1806	283 201 251 51
1807	275 274 314 199
1808	201 266 335 11
1809	330 184 327 292
1810	18 174 155 193
1811	20 336 102 59
1812	171 229 76 15
1813	311 154 69 215
1814	245 43 92 137
1815	57 70 19 228
1816	313 43 20 126
1817	114 182 30 94
1818	242 341 84 279
1819	76 196 131 329
1820	213 329 289 132
1821	22 243 344 88
1822	319 58 42 142
1823	128 117 7 321
1824	171 54 345 161
1825	104 13 177 129
1826	27 141 129 277
1827	110 223 259 161
1828	24 13 50 306
1829	1 271 158 202
1830	264 117 11 25
1831	70 333 95 2
1832	315 332 56 31
1833	267 235 142 237
1834	77 229 17 286
1835	214 288 30 34
1836	143 22 45 56
1837	323 224 89 319
1838	38 193 300 241
1839	241 40 112 220
1840	133 86 45 96
1841	82 200 58 292
1842	7 119 136 151
1843	215 188 184 263
1844	107 180 10 234
1845	107 265 296 16
1846	192 163 275 40
1847	338 108 53 221
1848	89 305 278 171
1849	198 135 15 210
1850	146 50 164 278
1851	251 71 323 186
1852	5 157 3 110
1853	183 332 230 63
1854	222 118 126 325
1855	297 119 187 317
1856	205 88 211 150
1857	195 219 324 125
1858	327 305 150 93
1859	300 157 109 172
1860	129 333 2 8
1861	187 310 183 195
1862	295 300 283 19
1863	230 173 256 198
1864	206 174 60 326
1865	319 323 200 176
1866	52 249 63 250
1867	216 299 348 310
1868	272 169 89 218
1869	74 247 303 95
1870	239 164 72 141
1871	264 169 19 326
1872	132 205 293 167
1873	1 230 298 96
1874	199 67 49 26
1875	112 249 253 178
1876	280 176 2 215
1877	255 110 44 257
1878	162 212 331 341
1879	105 225 291 290
1880	164 45 235 286
1881	19 175 177 180
1882	139 122 192 230
1883	201 102 187 252
1884	347 328 98 203
1885	276 335 122 74
1886	141 9 342 256
1887	317 81 234 197
1888	66 145 79 32
1889	124 315 297 262
1890	214 303 233 283
1891	53 250 222 236
1892	85 267 236 233
1893	160 238 288 92
1894	130 228 139 162
1895	20 169 297 49
1896	253 308 293 110
1897	60 96 274 258
1898	306 249 169 99
1899	331 132 20 285
1900	182 184 340 2
1901	35 160 239 5
1902	179 233 209 113
1903	255 331 327 110
1904	28 94 221 87
1905	62 5 88 350
1906	102 309 61 15
1907	92 65 200 350
1908	18 28 239 184
1909	286 267 163 109
1910	143 96 131 69
1911	245 211 58 170
1912	31 329 175 107
1913	347 146 21 38
1914	100 331 261 138
1915	344 247 115 183
1916	289 97 76 158
1917	7 206 22 11
1918	266 214 7 138
1919	330 137 256 97
1920	76 46 332 54
1921	46 160 274 148
1922	80 303 219 105
1923	227 300 15 133
1924	266 116 117 284
1925	29 313 267 109
1926	306 211 303 88
1927	331 328 131 88
1928	117 36 313 153
1929	147 22 197 284
1930	130 89 310 101
1931	127 17 235 199
1932	229 307 329 179
1933	46 288 159 321
1934	220 228 284 156
1935	280 54 276 320
1936	189 82 38 128
1937	276 139 122 289
1938	163 217 254 108
1939	244 134 54 322
1940	186 79 262 165
1941	62 185 108 128
1942	227 124 185 200
1943	81 107 178 201
1944	195 252 219 340
1945	221 21 263 201
1946	84 226 26 49
1947	184 237 342 262
1948	109 110 247 62
1949	221 321 294 96
1950	275 205 69 147
1951	175 140 31 110
1952	84 135 58 204
1953	259 61 31 213
1954	21 322 134 184
1955	249 12 135 176
1956	285 321 214 108
1957	74 297 219 247
1958	242 245 272 3
1959	234 168 133 303
1960	174 191 106 41
1961	276 81 330 26
1962	65 262 306 10
1963	117 171 123 39
1964	1 290 15 99
1965	184 265 198 335
1966	136 168 148 234
1967	330 171 323 246
1968	160 100 240 111
1969	79 276 281 181
1970	151 243 288 53
1971	253 251 212 235
1972	260 147 204 309
1973	84 303 14 1
1974	197 92 194 294
1975	187 279 2 149
1976	159 119 221 155
1977	238 93 92 61
1978	149 289 115 77
1979	173 105 145 181
1980	72 225 279 147
1981	114 333 263 245
1982	225 320 4 97
1983	13 320 310 205
1984	96 238 89 334
1985	267 87 46 114
1986	280 43 193 329
1987	28 89 46 10
1988	270 134 170 186
1989	189 280 82 326
1990	70 93 150 188
1991	61 166 270 27
1992	297 84 2 18
1993	131 244 158 308
1994	327 209 128 149
1995	294 45 271 96
1996	219 54 200 44
1997	239 279 183 77
1998	63 198 113 76
1999	157 17 48 224
2000	301 78 4 227
2001	3 209 333 224
2002	269 236 4 100
2003	123 43 51 335
2004	185 239 19 341
2005	28 87 169 100
2006	146 140 152 167
2007	52 84 268 326
2008	290 198 274 74
2009	201 182 128 274
2010	65 102 77 71
2011	95 282 342 84
2012	108 291 207 159
2013	299 289 100 30
2014	4 215 261 114
2015	87 206 44 234
2016	38 341 271 5
2017	74 215 76 16
2018	159 90 104 190
2019	134 290 217 299
2020	181 142 49 321
2021	146 252 204 269
2022	337 248 271 60
2023	238 273 177 128
2024	118 35 93 209
2025	184 164 48 88
2026	115 244 174 82
2027	83 270 29 273
2028	108 86 76 257
2029	338 274 48 240
2030	83 187 57 167
2031	223 153 57 292
2032	110 47 230 104
2033	264 209 288 255
2034	186 194 75 321
2035	279 253 13 130
2036	197 133 308 295
2037	147 18 11 278
2038	238 270 112 151
2039	318 72 150 211
2040	327 274 199 318
2041	207 85 57 84
2042	243 166 317 229
2043	279 148 246 315
2044	148 41 333 144
2045	60 251 115 310
2046	55 328 347 305
2047	51 79 26 294
2048	336 72 143 118
2049	327 236 159 216
2050	133 157 179 163
2051	303 132 11 41
2052	104 278 97 195
2053	342 221 219 29
2054	283 314 39 178
2055	63 294 203 329
2056	335 310 39 327
2057	14 176 300 335
2058	195 10 221 224
2059	161 36 76 325
2060	4 83 346 276
2061	291 79 180 95
2062	333 94 261 284
2063	79 186 330 132
2064	34 169 122 140
2065	89 119 28 316
2066	136 125 307 221
2067	47 76 274 204
2068	299 170 87 217
2069	104 259 99 50
2070	73 238 186 324
2071	217 287 108 292
2072	95 330 322 109
2073	335 91 253 38
2074	264 161 199 107
2075	85 28 332 6
2076	284 184 233 196
2077	282 306 130 5
2078	18 82 29 280
2079	331 4 36 302
2080	115 37 163 290
2081	20 240 214 194
2082	277 96 301 318
2083	251 348 114 109
2084	28 289 294 186
2085	96 340 244 304
2086	180 288 216 208
2087	144 67 37 197
2088	136 27 287 230
2089	14 329 274 317
2090	70 126 162 23
2091	241 37 348 252
2092	267 226 36 163
2093	78 10 326 43
2094	236 103 122 139
2095	117 48 47 43
2096	180 202 258 135
2097	257 295 250 289
2098	183 242 129 111
2099	155 165 147 286
2100	65 195 315 284
2101	17 110 218 141
2102	11 75 251 67
2103	239 296 241 110
2104	278 207 270 98
2105	317 104 268 344
2106	33 58 246 72
2107	293 269 84 130
2108	267 133 232 120
2109	58 142 126 310
2110	136 131 91 263
2111	10 53 28 316
2112	92 160 144 278
2113	197 16 256 116
2114	291 132 299 86
2115	209 13 180 55
2116	227 226 132 259
2117	43 127 143 146
2118	178 12 174 282
2119	169 259 308 277
2120	77 55 115 87
2121	346 12 182 69
2122	273 130 54 295
2123	158 208 174 153
2124	28 65 94 160
2125	191 65 204 337
2126	8 15 176 333
2127	54 75 120 53
2128	343 246 340 26
2129	339 29 326 167
2130	271 108 142 191
2131	89 196 313 32
2132	339 266 126 189
2133	161 114 344 44
2134	290 212 350 28
2135	122 232 339 286
2136	238 43 327 119
2137	238 155 86 192
2138	225 191 104 189
2139	142 4 207 258
2140	67 22 41 28
2141	109 10 190 34
2142	100 144 102 333
2143	29 213 290 21
2144	75 84 179 53
2145	307 230 288 234
2146	315 308 98 87
2147	329 281 54 334
2148	180 78 316 166
2149	97 220 299 314
2150	131 114 297 97
2151	120 321 198 299
2152	186 187 180 144
2153	7 225 163 64
2154	89 169 155 216
2155	43 327 65 101
2156	246 280 199 318
2157	251 77 228 317
2158	242 165 46 297
2159	98 210 3 177
2160	77 259 70 67
2161	39 321 254 283
2162	248 332 284 223
2163	276 233 237 70
2164	121 225 323 178
2165	157 192 135 205
2166	263 199 152 216
2167	24 284 157 145
2168	316 145 324 231
2169	24 231 178 185
2170	225 164 149 248
2171	213 271 61 195
2172	135 245 334 91
2173	181 120 221 117
2174	197 178 122 153
2175	181 37 284 216
2176	55 18 126 159
2177	169 211 132 12
2178	103 14 264 207
2179	273 68 328 261
2180	28 330 309 46
2181	132 167 160 278
2182	52 259 279 258
2183	83 120 325 179
2184	62 298 305 247
2185	276 124 16 196
2186	119 95 201 139
2187	209 3 279 177
2188	71 271 339 333
2189	70 75 207 278
2190	257 283 82 337
2191	7 187 280 31
2192	57 280 183 199
2193	213 262 126 280
2194	91 230 99 221
2195	8 329 120 164
2196	64 240 66 131
2197	348 185 121 129
2198	135 188 250 311
2199	270 221 279 138
2200	106 178 187 266
2201	266 93 244 147
2202	86 283 143 16
2203	22 84 53 14
2204	308 212 234 206
2205	79 284 316 219
2206	273 272 115 139
2207	261 87 236 286
2208	94 251 115 123
2209	164 127 184 111
2210	49 212 103 100
2211	50 81 317 225
2212	141 348 249 347
2213	126 297 288 165
2214	116 245 262 84
2215	98 337 266 196
2216	301 133 293 188
2217	192 159 290 189
2218	137 99 106 117
2219	67 100 112 280
2220	85 57 281 227
2221	163 122 135 150
2222	138 204 92 169
2223	171 51 40 241
2224	210 76 138 134
2225	300 229 241 318
2226	258 99 186 132
2227	234 146 204 225
2228	332 182 253 19
2229	26 105 13 314
2230	77 274 191 27
2231	341 77 44 318
2232	39 230 35 132
2233	183 284 111 245
2234	70 330 190 310
2235	224 107 292 67
2236	119 197 96 16
2237	42 309 196 111
2238	75 37 233 210
2239	27 34 275 126
2240	67 252 19 43
2241	258 340 259 201
2242	57 278 186 19
2243	220 103 36 303
2244	95 293 283 63
2245	275 242 65 280
2246	341 170 8 116
2247	80 149 211 137
2248	59 131 89 134
2249	278 87 339 258
2250	297 70 342 190
2251	169 277 203 49
2252	195 122 128 232
2253	87 13 128 114
2254	288 293 167 176
2255	125 179 109 119
2256	203 83 181 334
2257	91 225 179 302
2258	194 129 23 275
2259	71 230 164 2
2260	168 117 348 272
2261	217 340 253 61
2262	6 139 301 2
2263	277 302 10 55
2264	101 257 31 251
2265	14 171 68 163
2266	318 326 132 101
2267	7 176 292 186
2268	131 40 150 233
2269	287 15 324 346
2270	125 152 319 136
2271	319 215 208 89
2272	279 29 56 65
2273	71 332 120 225
2274	342 95 293 7
2275	313 264 134 283
2276	204 315 347 21
2277	183 292 85 128
2278	221 125 8 115
2279	10 284 313 78
2280	211 86 97 263
2281	313 107 119 347
2282	65 258 198 311
2283	76 84 293 40
2284	191 200 322 332
2285	33 301 98 296
2286	3 41 287 107
2287	90 154 265 138
2288	124 300 192 60
2289	91 18 3 58
2290	218 201 159 242
2291	312 292 103 109
2292	192 13 240 96
2293	223 32 72 147
2294	75 173 136 228
2295	86 63 8 191
2296	198 95 161 237
2297	125 216 219 154
2298	238 5 239 274
2299	86 10 96 129
2300	199 156 177 144
2301	159 210 114 153
2302	125 179 249 294
2303	312 138 207 50
2304	135 204 20 89
2305	236 212 20 117
2306	232 323 69 349
2307	169 342 241 224
2308	185 29 133 198
2309	255 315 118 7
2310	92 318 329 330
2311	65 193 32 327
2312	149 316 28 215
2313	19 26 350 135
2314	177 70 121 248
2315	191 130 286 311
2316	117 59 320 162
2317	103 83 64 114
2318	78 209 16 157
2319	272 235 273 170
2320	211 276 43 259
2321	331 329 32 6
2322	56 155 76 203
2323	348 222 269 171
2324	58 15 161 294
2325	350 108 6 57
2326	218 220 152 9
2327	253 137 65 75
2328	182 101 128 148
2329	165 49 130 10
2330	35 119 45 156
2331	100 328 322 138
2332	189 67 16 45
2333	320 280 157 336
2334	62 339 240 340
2335	14 346 138 299
2336	45 116 129 299
2337	326 210 51 169
2338	121 281 307 16
2339	174 303 105 235
2340	245 214 116 148
2341	29 345 3 273
2342	4 318 299 10
2343	113 220 214 95
2344	176 77 111 228
2345	324 338 71 160
2346	32 253 310 276
2347	260 112 192 194
2348	191 16 74 61
2349	37 295 84 343
2350	342 105 296 125
2351	20 58 80 119
2352	7 98 251 118
2353	96 222 139 43
2354	20 54 109 204
2355	265 193 80 122
2356	101 182 195 322
2357	11 307 36 6
2358	343 93 94 332
2359	163 309 96 1
2360	94 252 143 250
2361	204 232 57 211
2362	1 123 121 70
2363	195 267 14 188
2364	224 218 264 63
2365	33 299 342 184
2366	340 260 286 223
2367	196 33 127 10
2368	176 248 303 226
2369	343 276 41 282
2370	223 152 257 64
2371	238 350 117 113
2372	145 282 194 289
2373	202 342 302 281
2374	160 47 346 208
2375	19 260 12 1
2376	340 305 164 220
2377	323 201 222 104
2378	19 152 46 144
2379	203 2 321 289
2380	117 213 9 170
2381	225 221 143 250
2382	340 131 76 192
2383	135 65 34 119
2384	126 312 102 248
2385	49 143 172 290
2386	147 13 38 206
2387	128 211 15 189
2388	89 75 119 201
2389	199 92 112 163
2390	36 336 309 70
2391	96 265 150 285
2392	310 216 338 72
2393	110 309 42 4
2394	143 169 120 77
2395	116 15 54 192
2396	79 273 276 128
2397	335 309 207 281
2398	165 124 271 123
2399	124 190 270 33
2400	171 90 12 276
2401	325 11 339 224
2402	317 51 155 179
2403	284 293 295 8
2404	339 25 221 234
2405	126 228 34 26
2406	91 126 155 83
2407	132 318 338 287
2408	238 33 128 131
2409	284 322 152 50
2410	157 100 332 264
2411	296 211 175 171
2412	74 324 73 206
2413	306 41 9 252
2414	252 315 333 198
2415	169 89 66 239
2416	177 95 36 127
2417	306 39 325 244
2418	326 172 347 232
2419	64 130 86 124
2420	140 338 288 300
2421	48 187 229 215
2422	62 252 196 268
2423	9 186 224 13
2424	52 44 224 244
2425	188 173 177 166
2426	19 101 35 51
2427	24 312 187 77
2428	106 58 333 88
2429	108 281 347 297
2430	25 183 283 330
2431	168 333 79 179
2432	223 198 47 92
2433	123 339 216 189
2434	16 146 240 23
2435	131 153 349 155
2436	345 240 68 211
2437	165 189 264 130
2438	162 12 178 14
2439	316 174 243 61
2440	75 350 20 42
2441	110 173 152 312
2442	41 102 238 152
2443	184 201 5 167
2444	233 181 187 301
2445	335 260 64 17
2446	199 170 51 247
2447	163 212 263 238
2448	284 112 101 21
2449	125 2 107 50
2450	63 50 288 204
2451	271 155 178 174
2452	333 150 135 271
2453	55 199 78 209
2454	278 7 72 129
2455	196 225 227 334
2456	59 156 78 350
2457	195 243 271 123
2458	113 115 46 265
2459	85 5 157 268
2460	330 249 318 222
2461	81 257 192 327
2462	270 188 307 8
2463	332 203 263 320
2464	20 311 150 246
2465	178 53 252 175
2466	185 110 3 251
2467	116 292 206 103
2468	258 79 44 210
2469	99 13 322 143
2470	312 158 249 76
2471	180 153 196 232
2472	57 318 121 122
2473	140 302 31 37
2474	59 296 182 262
2475	317 268 324 88
2476	276 90 109 37
2477	163 162 144 145
2478	300 309 226 262
2479	17 327 254 266
2480	30 240 177 142
2481	104 204 251 167
2482	251 274 118 231
2483	288 73 132 231
2484	236 228 64 303
2485	188 151 340 328
2486	253 269 341 198
2487	215 321 185 336
2488	335 19 276 129
2489	29 25 265 51
2490	87 39 291 78
2491	95 110 65 302
2492	245 270 125 326
2493	124 225 291 158
2494	332 142 247 137
2495	345 343 115 4
2496	69 107 80 277
2497	216 237 70 310
2498	63 225 293 201
2499	144 240 193 81
2500	325 262 212 129
2501	280 17 93 260
2502	336 322 294 182
2503	222 302 170 330
2504	316 178 292 68
2505	203 106 1 328
2506	268 305 196 29
2507	297 22 339 239
2508	17 185 136 340
2509	231 145 72 38
2510	246 51 19 126
2511	281 23 92 138
2512	127 320 338 93
2513	175 77 103 292
2514	293 182 57 52
2515	147 179 279 153
2516	232 80 62 212
2517	331 11 65 161
2518	246 161 105 54
2519	44 76 68 159
2520	68 308 254 322
2521	171 91 72 134
2522	110 91 174 277
2523	201 200 196 142
2524	102 22 212 51
2525	348 50 285 51
2526	6 281 152 118
2527	229 147 178 217
2528	305 317 236 51
2529	301 271 110 337
2530	36 181 135 133
2531	327 173 266 169
2532	323 50 261 325
2533	225 203 243 152
2534	318 344 224 182
2535	271 181 223 127
2536	350 333 300 59
2537	164 159 11 315
2538	339 285 110 29
2539	19 242 342 27
2540	130 71 114 273
2541	198 195 314 269
2542	273 277 175 159
2543	210 94 349 237
2544	214 163 59 56
2545	290 255 17 126
2546	327 301 227 115
2547	108 235 78 40
2548	161 61 283 33
2549	270 10 66 80
2550	117 324 202 172
2551	34 329 263 5
2552	154 268 15 38
2553	210 113 191 76
2554	228 128 257 330
2555	35 176 66 327
2556	334 310 193 64
2557	148 16 128 298
2558	99 171 188 185
2559	252 176 349 276
2560	273 330 128 28
2561	308 172 202 263
2562	156 117 333 163
2563	78 50 114 75
2564	208 43 265 252
2565	103 79 77 75
2566	192 218 188 245
2567	118 81 288 91
2568	345 4 204 19
2569	329 148 62 206
2570	89 79 171 238
2571	342 201 156 229
2572	279 244 112 130
2573	169 325 20 317
2574	35 293 55 202
2575	323 287 304 212
2576	148 251 46 182
2577	283 208 148 84
2578	335 178 102 114
2579	125 44 41 174
2580	295 11 8 73
2581	28 93 110 186
2582	327 116 300 163
2583	343 349 275 4
2584	4 277 179 278
2585	97 335 233 207
2586	225 243 229 133
2587	168 96 350 120
2588	286 181 157 131
2589	313 101 95 110
2590	330 174 56 193
2591	208 307 299 184
2592	331 54 78 156
2593	91 189 44 223
2594	195 183 339 266
2595	103 107 53 3
2596	71 291 297 230
2597	4 305 51 39
2598	106 95 153 118
2599	286 1 243 349
2600	41 68 216 150
2601	243 158 208 60
2602	290 316 127 311
2603	204 18 159 75
2604	303 230 109 153
2605	196 226 240 143
2606	31 50 273 44
2607	78 307 117 29
2608	315 344 78 91
2609	329 160 83 154
2610	340 82 101 249
2611	79 302 150 181
2612	267 345 133 247
2613	301 295 103 85
2614	275 130 143 82
2615	340 21 314 272
2616	341 106 275 194
2617	263 243 51 334
2618	189 51 322 259
2619	52 148 326 34
2620	1 176 208 268
2621	132 177 46 197
2622	77 320 64 157
2623	280 87 146 13
2624	241 3 160 153
2625	132 19 49 350
2626	163 75 305 193
2627	182 262 77 281
2628	223 197 177 342
2629	17 222 260 177
2630	141 190 228 80
2631	185 313 100 320
2632	156 84 252 112
2633	82 233 113 180
2634	53 249 105 231
2635	10 315 9 270
2636	83 212 56 161
2637	240 236 33 269
2638	244 62 45 176
2639	293 292 267 223
2640	326 164 182 244
2641	24 312 167 155
2642	317 289 244 61
2643	241 88 301 155
2644	330 245 35 127
2645	349 208 308 118
2646	182 224 342 189
2647	158 187 347 211
2648	67 284 95 164
2649	176 248 123 105
2650	94 29 1 282
2651	87 157 22 276
2652	60 83 229 9
2653	209 153 344 100
2654	213 65 101 288
2655	289 115 302 49
2656	344 12 203 22
2657	297 39 136 131
2658	145 278 168 182
2659	153 46 115 3
2660	269 24 345 335
2661	313 9 32 147
2662	341 194 140 102
2663	158 209 299 9
2664	230 99 155 304
2665	253 173 332 115
2666	309 186 298 105
2667	29 305 124 207
2668	115 52 143 165
2669	275 248 299 25
2670	249 168 304 340
2671	327 89 19 30
2672	283 145 327 117
2673	69 46 137 342
2674	197 79 88 60
2675	95 9 69 124
2676	50 241 119 204
2677	224 179 76 311
2678	304 222 208 287
2679	76 160 44 110
2680	339 196 233 254
2681	241 265 99 78
2682	27 38 50 336
2683	94 158 160 257
2684	88 80 305 268
2685	242 92 67 18
2686	8 231 62 178
2687	294 162 106 174
2688	217 302 32 348
2689	161 140 113 235
2690	61 329 264 84
2691	255 212 257 317
2692	26 62 155 23
2693	110 95 183 134
2694	24 268 9 242
2695	248 37 335 312
2696	19 321 63 89
2697	109 342 150 129
2698	193 30 164 17
2699	228 185 316 47
2700	34 96 55 13
2701	243 333 285 313
2702	251 132 242 86
2703	307 141 69 155
2704	197 138 337 115
2705	303 45 169 89
2706	220 313 257 273
2707	218 71 240 338
2708	66 177 56 19
2709	144 349 197 71
2710	67 124 333 347
2711	300 278 11 8
2712	156 125 154 319
2713	12 287 101 251
2714	281 307 329 293
2715	285 279 6 231
2716	331 332 244 156
2717	134 188 213 139
2718	221 107 40 131
2719	333 176 202 72
2720	129 272 116 292
2721	41 66 59 297
2722	223 84 281 172
2723	93 94 253 152
2724	234 26 77 348
2725	260 281 189 279
2726	250 145 31 217
2727	36 185 288 35
2728	190 258 77 319
2729	13 53 265 298
2730	186 68 245 158
2731	327 305 344 343
2732	134 340 51 100
2733	28 278 172 40
2734	342 135 232 306
2735	263 273 150 237
2736	83 285 189 317
2737	83 93 162 30
2738	108 213 194 240
2739	348 9 42 271
2740	163 13 254 132
2741	208 156 313 187
2742	119 323 193 278
2743	78 284 34 61
2744	45 59 327 20
2745	247 116 41 107
2746	111 164 224 327
2747	325 28 57 231
2748	116 201 179 124
2749	222 287 223 76
2750	119 101 225 48
2751	53 250 345 4
2752	342 290 165 263
2753	229 91 95 188
2754	149 226 326 166
2755	310 150 252 83
2756	257 304 330 72
2757	45 272 54 240
2758	205 149 8 283
2759	133 219 233 261
2760	47 223 80 266
2761	121 248 250 44
2762	188 177 140 204
2763	280 187 231 178
2764	39 63 194 150
2765	229 333 224 314
2766	52 78 307 324
2767	127 49 194 137
2768	153 258 200 191
2769	325 213 148 350
2770	281 291 83 274
2771	111 34 116 190
2772	66 103 262 9
2773	162 13 238 232
2774	312 65 24 152
2775	242 140 273 225
2776	313 279 124 53
2777	147 303 236 186
2778	146 212 186 100
2779	147 51 55 272
2780	129 155 268 238
2781	29 279 153 316
2782	189 178 88 232
2783	256 17 341 318
2784	195 51 341 149
2785	277 46 185 21
2786	136 343 111 184
2787	302 9 189 290
2788	290 231 180 145
2789	332 277 214 194
2790	282 136 121 175
2791	336 165 2 56
2792	203 171 226 146
2793	143 5 250 11
2794	272 126 200 245
2795	197 321 326 241
2796	21 222 329 333
2797	264 338 149 246
2798	291 94 337 136
2799	11 240 171 230
2800	143 228 346 97
2801	324 142 243 295
2802	15 342 156 87
2803	55 100 204 304
2804	173 348 231 282
2805	344 140 188 205
2806	103 268 117 303
2807	154 43 220 218
2808	243 4 241 52
2809	245 284 11 342
2810	83 30 82 75
2811	320 118 337 12
2812	164 328 173 315
2813	17 112 8 110
2814	149 302 118 239
2815	176 260 99 36
2816	107 70 42 191
2817	283 123 100 344
2818	211 45 207 340
2819	56 110 229 173
2820	225 160 165 156
2821	250 30 323 178
2822	78 189 243 50
2823	58 232 306 201
2824	308 29 309 161
2825	124 218 59 343
2826	46 198 69 280
2827	113 148 97 134
2828	281 173 316 59
2829	178 162 267 228
2830	209 183 47 94
2831	190 114 277 302
2832	284 222 8 104
2833	133 107 240 56
2834	139 48 336 138
2835	259 252 299 213
2836	50 147 58 136
2837	35 47 32 36
2838	201 41 149 133
2839	219 335 215 67
2840	11 346 89 167
2841	127 223 115 178
2842	339 8 267 26
2843	60 220 315 103
2844	320 67 66 51
2845	84 11 63 62
2846	58 89 119 137
2847	203 134 302 229
2848	25 187 270 209
2849	289 350 285 315
2850	195 234 26 198
2851	260 267 105 256
2852	324 232 295 261
2853	229 272 50 299
2854	214 131 235 229
2855	287 157 346 270
2856	253 141 38 4
2857	169 178 322 35
2858	250 226 207 228
2859	323 99 65 113
2860	158 95 72 17
2861	94 4 61 165
2862	92 246 222 175
2863	145 121 177 206
2864	116 78 224 330
2865	163 93 326 106
2866	319 75 148 202
2867	199 177 252 93
2868	136 243 159 7
2869	84 101 291 70
2870	239 59 170 189
2871	82 87 253 334
2872	71 102 123 233
2873	311 112 68 322
2874	54 171 66 328
2875	200 129 226 38
2876	28 178 333 134
2877	157 139 119 334
2878	316 62 298 159
2879	200 135 201 129
2880	19 238 129 40
2881	119 300 103 170
2882	334 69 308 97
2883	200 112 308 73
2884	279 207 32 52
2885	104 46 216 263
2886	241 101 23 115
2887	52 292 51 61
2888	233 145 320 260
2889	206 265 338 270
2890	306 330 285 174
2891	211 171 5 229
2892	63 317 121 303
2893	128 315 31 264
2894	278 241 300 143
2895	108 176 327 213
2896	19 25 336 57
2897	204 99 244 16
2898	145 310 327 154
2899	101 225 131 287
2900	271 74 141 184
2901	340 240 10 300
2902	253 175 113 346
2903	301 321 156 155
2904	14 124 332 301
2905	12 126 20 57
2906	225 192 88 73
2907	71 54 12 321
2908	207 158 299 325
2909	18 27 213 164
2910	73 70 186 256
2911	62 249 277 193
2912	71 322 312 129
2913	184 227 324 113
2914	314 246 327 32
2915	272 294 237 111
2916	309 119 281 95
2917	216 18 134 293
2918	97 215 69 293
2919	1 164 309 225
2920	201 139 210 315
2921	152 225 140 194
2922	135 21 231 203
2923	39 153 94 102
2924	308 146 305 155
2925	96 341 270 135
2926	172 326 307 173
2927	149 152 257 208
2928	207 19 212 319
2929	57 81 334 185
2930	54 96 272 327
2931	90 64 30 212
2932	26 346 46 179
2933	103 123 4 196
2934	267 104 63 81
2935	198 209 123 338
2936	278 235 76 54
2937	69 89 106 32
2938	322 253 255 303
2939	149 3 213 190
2940	171 181 150 325
2941	271 288 25 250
2942	127 151 196 185
2943	153 218 258 48
2944	282 21 89 234
2945	169 189 178 34
2946	113 211 99 273
2947	221 295 258 281
2948	154 328 225 336
2949	122 311 14 173
2950	173 288 31 114
2951	181 51 159 211
2952	7 276 325 82
2953	208 334 274 347
2954	1 292 9 41
2955	106 191 306 284
2956	115 133 112 271
2957	343 302 176 92
2958	16 332 283 284
2959	172 334 119 318
2960	208 196 137 272
2961	91 318 186 238
2962	38 84 233 90
2963	106 321 122 314
2964	322 296 92 279
2965	102 206 134 8
2966	328 24 34 28
2967	244 175 272 254
2968	51 269 155 85
2969	235 304 44 54
2970	224 196 207 183
2971	318 129 239 316
2972	218 96 168 254
2973	349 131 255 132
2974	217 21 201 36
2975	268 106 25 202
2976	264 315 146 38
2977	127 306 137 73
2978	257 86 265 84
2979	237 75 227 99
2980	204 33 269 306
2981	234 10 350 68
2982	277 12 186 331
2983	242 157 246 232
2984	69 43 70 146
2985	336 259 11 225
2986	3 270 344 210
2987	121 195 288 343
2988	28 215 213 288
2989	347 156 43 229
2990	198 326 294 214
2991	153 40 201 100
2992	75 69 300 263
2993	261 93 108 350
2994	115 152 224 106
2995	39 148 260 112
2996	295 56 189 162
2997	201 194 196 267
2998	37 312 105 171
2999	253 328 194 326
3000	220 101 246 62
